{
   "bg_default_dial_aliexpress": {
      "message": "AliExpress"
   },
   "bg_default_dial_amazon": {
      "message": "Amazon"
   },
   "bg_default_dial_betterchrome": {
      "message": "BetterChrome"
   },
   "bg_default_dial_billiger": {
      "message": "Billiger"
   },
   "bg_default_dial_booking": {
      "message": "Booking.com"
   },
   "bg_default_dial_ebay": {
      "message": "EBay"
   },
   "bg_default_dial_facebook": {
      "message": "FaceBook"
   },
   "bg_default_dial_fvdsdff": {
      "message": "FVD SpeedDial pour FireFox"
   },
   "bg_default_dial_fvdsyncchrome": {
      "message": "EverSync"
   },
   "bg_default_dial_google": {
      "message": "Google"
   },
   "bg_default_dial_groupon": {
      "message": "Groupon"
   },
   "bg_default_dial_half_com": {
      "message": "Half.com"
   },
   "bg_default_dial_nimbus": {
      "message": "Nimbus Note"
   },
   "bg_default_dial_tripadvizor": {
      "message": "TripAdvisor"
   },
   "bg_default_dial_twitter": {
      "message": "Twitter"
   },
   "bg_default_dial_wayfair": {
      "message": "Wayfair"
   },
   "bg_default_dial_webstore": {
      "message": "Chrome Web Store"
   },
   "bg_default_group_name": {
      "message": "Par défaut"
   },
   "bg_default_group_products": {
      "message": "Nos productions"
   },
   "bg_dialog_adddial_autoupdate_days": {
      "message": "Jours"
   },
   "bg_dialog_adddial_autoupdate_every": {
      "message": "Chaque"
   },
   "bg_dialog_adddial_autoupdate_hours": {
      "message": "Heures"
   },
   "bg_dialog_adddial_autoupdate_minutes": {
      "message": "Minutes"
   },
   "bg_dialog_adddial_click_to_get_title": {
      "message": "Cliquer pour obtenir le titre"
   },
   "bg_dialog_adddial_custom_preview_updated": {
      "message": " (Mise à jour!)"
   },
   "bg_dialog_adddial_default_preview": {
      "message": "Logo prédéfini"
   },
   "bg_dialog_adddial_enable_autoupdate_preview": {
      "message": "Mise à jour Automatique"
   },
   "bg_dialog_adddial_group": {
      "message": "Groupe"
   },
   "bg_dialog_adddial_group_name": {
      "message": "Nom du groupe"
   },
   "bg_dialog_adddial_image_url": {
      "message": "Prévisualisation URL"
   },
   "bg_dialog_adddial_pic_local_file": {
      "message": "Fichier local?"
   },
   "bg_dialog_adddial_pick_local_file_desc": {
      "message": "Pour lier la vignette à votre image stockée localement, vous devez écrire l'emplacement exact de l'image dans le format:\u003Cbr>{examples}\u003Cbr>Alternative pour avoir l'adresse de l'image: Ouvrir un nouvel onglet. Sélectionner et lâcher votre fichier dans le navigateur. Vous verrez les adresses de vos fichiers dans la barre d'adresses."
   },
   "bg_dialog_adddial_pick_local_file_desc_linux": {
      "message": "file://{Chemin d'accès complet au fichier}\u003Cbr>Par exemple: \u003Cb>file:///home/user/page.html\u003C/b>"
   },
   "bg_dialog_adddial_pick_local_file_desc_win": {
      "message": "file:///{Chemin d'accès complet au fichier où la barre \\ est remplacé par /}\u003Cbr>Par exemple: \u003Cb>file:///C:\\user\\pic.jpg\u003C/b>"
   },
   "bg_dialog_adddial_pick_url_from": {
      "message": "Choisir l'adresse depuis:"
   },
   "bg_dialog_adddial_pick_url_from_most_popular": {
      "message": "Les plus populaires"
   },
   "bg_dialog_adddial_pick_url_from_most_visited": {
      "message": "Les plus visitées"
   },
   "bg_dialog_adddial_pick_url_from_opened_tabs": {
      "message": "Onglets ouverts"
   },
   "bg_dialog_adddial_pick_url_from_or": {
      "message": "ou"
   },
   "bg_dialog_adddial_pick_user_pic": {
      "message": "Naviguer dans la galerie des utilisateurs"
   },
   "bg_dialog_adddial_preview_creation_delay": {
      "message": "Délai de création de la prévisualisation (ms):"
   },
   "bg_dialog_adddial_refresh_preview": {
      "message": "Rafraîchir la prévisualisation"
   },
   "bg_dialog_adddial_title": {
      "message": "Titre"
   },
   "bg_dialog_adddial_top10pics_showmore": {
      "message": "Montrer plus"
   },
   "bg_dialog_adddial_top10pics_title": {
      "message": "Top 10 des images d'utilisateurs"
   },
   "bg_dialog_adddial_url": {
      "message": "URL"
   },
   "bg_dialog_adddial_use_auto_preview": {
      "message": "Prévisualisation automatique"
   },
   "bg_dialog_adddial_use_custom_preview": {
      "message": "Prévisualisation personnalisée"
   },
   "bg_dialog_adddial_use_manual_preview": {
      "message": "Prévisualisation manuelle"
   },
   "bg_dialog_addgroup_name": {
      "message": "Nom"
   },
   "bg_dialog_addgroup_position": {
      "message": "Add To:"
   },
   "bg_dialog_addgroup_position_bottom": {
      "message": "Bottom"
   },
   "bg_dialog_addgroup_position_top": {
      "message": "Top"
   },
   "bg_dialog_addgroup_sync": {
      "message": "Synchroniser ce groupe"
   },
   "bg_dialog_deny_sign": {
      "message": "Adresse"
   },
   "bg_dialog_deny_type": {
      "message": "Type"
   },
   "bg_dialog_deny_type_domain": {
      "message": "Domaine"
   },
   "bg_dialog_deny_type_url": {
      "message": "URL"
   },
   "bg_dialog_import_export_eversync_1": {
      "message": "Ce type de sauvegarde ne sauvegardera pas vos images personnalisées!!!"
   },
   "bg_dialog_import_export_eversync_2": {
      "message": "Si vous avez besoin d'une sauvegarde complète, Utilisez notre extension de sauvegarde en ligne:"
   },
   "bg_dialog_import_export_eversync_clickhere": {
      "message": "Cliquer ici pour installer l'extension..."
   },
   "bg_dialog_loading": {
      "message": "Chargement..."
   },
   "bg_dialog_manage_deny_sign": {
      "message": "Adresse"
   },
   "bg_dialog_manage_deny_type": {
      "message": "Type"
   },
   "bg_dialog_managegroups_groups": {
      "message": "Groupes"
   },
   "bg_dialog_setautoupdate_autoupdate_every": {
      "message": "Mise à Jour Automatique de la vignette chaque"
   },
   "bg_dialog_view_group_title": {
      "message": "Titre"
   },
   "bg_dialog_view_group_url": {
      "message": "URL"
   },
   "bg_write_review_dial_chromedownloader": {
      "message": "FVD Video Downloader"
   },
   "bg_write_review_dial_title": {
      "message": "Écrire votre critique"
   },
   "booking_widget_adults": {
      "message": "Adults"
   },
   "booking_widget_are_you_travelling_for_work": {
      "message": "Are you travelling for work?"
   },
   "booking_widget_checkin": {
      "message": "Check-in:"
   },
   "booking_widget_checkin_date": {
      "message": "Tuesday, April 11, 2017"
   },
   "booking_widget_checkout": {
      "message": "Check-out:"
   },
   "booking_widget_checkout_date": {
      "message": "Thursday, April 27, 2017"
   },
   "booking_widget_children": {
      "message": "Children\u003Cbr>(under 18)"
   },
   "booking_widget_children_ages_at_checkout": {
      "message": "Children's ages at checkout"
   },
   "booking_widget_children_ages_on": {
      "message": "Children's ages on"
   },
   "booking_widget_close": {
      "message": "close"
   },
   "booking_widget_destination_empty_error": {
      "message": "Enter a destination to start searching."
   },
   "booking_widget_destination_title": {
      "message": "Destination/Hotel Name:"
   },
   "booking_widget_dont_have_dates": {
      "message": "I don't have specific dates yet"
   },
   "booking_widget_from": {
      "message": "from"
   },
   "booking_widget_next_month": {
      "message": "Next Month"
   },
   "booking_widget_night_stay": {
      "message": "-night stay"
   },
   "booking_widget_no": {
      "message": "No"
   },
   "booking_widget_previous_month": {
      "message": "Previous Month"
   },
   "booking_widget_quick_search": {
      "message": "Quick Search"
   },
   "booking_widget_reservation_too_long": {
      "message": "Reservations longer than 30 nights are not possible. "
   },
   "booking_widget_reset": {
      "message": "reset"
   },
   "booking_widget_rooms": {
      "message": "Rooms"
   },
   "booking_widget_search": {
      "message": "Search"
   },
   "booking_widget_to": {
      "message": "to"
   },
   "booking_widget_travel_for_work_hint": {
      "message": "Quickly find the best properties for your trip"
   },
   "booking_widget_yes": {
      "message": "Yes"
   },
   "cm_add_to": {
      "message": "Ajouter à "
   },
   "cm_apps_open": {
      "message": "Ouvrir"
   },
   "cm_apps_remove": {
      "message": "Enlever"
   },
   "cm_main_title": {
      "message": "FVD Speed Dial"
   },
   "cm_mostvisited_cell_add_to_speeddial": {
      "message": "Ajouter à Speed Dial"
   },
   "cm_mostvisited_cell_block": {
      "message": "Bloquer"
   },
   "cm_refresh_all": {
      "message": "Tout rafraîchir"
   },
   "cm_scrolling_type": {
      "message": "Type de Scrolling"
   },
   "cm_speeddial_cell_copy_url": {
      "message": "Copier adresse"
   },
   "cm_speeddial_cell_edit": {
      "message": "Éditer"
   },
   "cm_speeddial_cell_move_to": {
      "message": "Déplacer vers"
   },
   "cm_speeddial_cell_open_bg_tab": {
      "message": "Ouvrir dans un onglet en arrière plan"
   },
   "cm_speeddial_cell_open_incognito_tab": {
      "message": "Ouvrir dans une fenêtre privée"
   },
   "cm_speeddial_cell_open_new_tab": {
      "message": "Ouvrir dans un nouvel onglet"
   },
   "cm_speeddial_cell_open_tab": {
      "message": "Ouvrir dans l'onglet"
   },
   "cm_speeddial_cell_refresh": {
      "message": "Rafraîchir"
   },
   "cm_speeddial_cell_refresh_manual": {
      "message": "Rafraîchir manuellement"
   },
   "cm_speeddial_cell_remove": {
      "message": "Effacer la vignette"
   },
   "cm_speeddial_global_add_dial": {
      "message": "Ajouter une vignette"
   },
   "cm_speeddial_global_change_size": {
      "message": "Changer la taille..."
   },
   "cm_speeddial_global_number_of_columns": {
      "message": "Nombre de Colonnes"
   },
   "cm_speeddial_global_number_of_rows": {
      "message": "Nombre de lignes"
   },
   "cm_speeddial_global_open_all": {
      "message": "Ouvrir toutes les vignettes"
   },
   "cm_speeddial_global_preview": {
      "message": "Prévisualisation"
   },
   "cm_speeddial_global_style": {
      "message": "Style"
   },
   "cm_speeddial_global_style_fancy": {
      "message": "Fantaisie"
   },
   "cm_speeddial_global_style_standard": {
      "message": "Standard"
   },
   "cm_speeddial_global_view": {
      "message": "Visualisation"
   },
   "cm_speeddial_global_view_big": {
      "message": "Grande"
   },
   "cm_speeddial_global_view_custom": {
      "message": "Personnalisée"
   },
   "cm_speeddial_global_view_list": {
      "message": "Liste"
   },
   "cm_speeddial_global_view_medium": {
      "message": "Moyenne"
   },
   "cm_speeddial_global_view_small": {
      "message": "Petite"
   },
   "cm_speeddial_group_default": {
      "message": "Défaut"
   },
   "cm_speeddial_group_edit": {
      "message": "Éditer"
   },
   "cm_speeddial_group_manage": {
      "message": "Gérer les groupes"
   },
   "cm_speeddial_group_open_all": {
      "message": "Ouvrir toutes les vignettes"
   },
   "cm_speeddial_group_remove": {
      "message": "Enlever"
   },
   "cm_speeddial_group_sync_this_group": {
      "message": "Synchroniser ce groupe"
   },
   "cropper_click_to_make_preview": {
      "message": "Cliquer pour obtenir une prévisualisation"
   },
   "cropper_last_page_url": {
      "message": "Dernière URL"
   },
   "cropper_message_wait": {
      "message": "Création de la miniature... Veuillez patienter..."
   },
   "cropper_pick_this": {
      "message": "Choisir celle-ci"
   },
   "cropper_your_url": {
      "message": "Votre URL"
   },
   "cs_dial_added": {
      "message": "La vignette a été ajoutée"
   },
   "dialog_add_dial_dynamic_title": {
      "message": "Titre dynamique"
   },
   "dialog_add_dial_enter_image_url": {
      "message": "Entrer l'URL de l'image"
   },
   "dialog_pick_user_pics_bottom_desc_1": {
      "message": "Utiliser"
   },
   "dialog_pick_user_pics_bottom_desc_2": {
      "message": "pour signaler une violation."
   },
   "dialog_pick_user_pics_not_found": {
      "message": "Aucune image trouvée pour votre requête."
   },
   "dialog_pick_user_pics_not_found_enter_in": {
      "message": "Quand vous trouvez une image que vous aimez, copiez l'URL et collez-là sous cette forme:"
   },
   "dialog_pick_user_pics_not_found_title": {
      "message": "Vous pouvez chercher pour ce logo de {host} sur ces formidables ressources et les ajouter à notre galerie."
   },
   "dialog_pick_user_pics_order": {
      "message": "Tri: "
   },
   "dialog_pick_user_pics_order_best": {
      "message": "Meilleures"
   },
   "dialog_pick_user_pics_order_new": {
      "message": "Nouvelles"
   },
   "dialog_pick_user_pics_report": {
      "message": "Signaler l'image"
   },
   "dialog_pick_user_pics_report_duplicate": {
      "message": "Dupliquée"
   },
   "dialog_pick_user_pics_report_innop": {
      "message": "Inappropriée"
   },
   "dialog_pick_user_pics_report_thanks": {
      "message": "Merci!"
   },
   "dialog_title_add_dial": {
      "message": "Ajout d'une vignette"
   },
   "dialog_title_add_group": {
      "message": "Ajout d'un groupe"
   },
   "dialog_title_deny": {
      "message": "Blocage"
   },
   "dialog_title_edit_deny": {
      "message": "Modification de la règle de blocage"
   },
   "dialog_title_export": {
      "message": "Exportation"
   },
   "dialog_title_import": {
      "message": "Importation"
   },
   "dialog_title_install_fvd_sync": {
      "message": "Installation de FVD Synchronizer"
   },
   "dialog_title_manage_deny": {
      "message": "Gestion des pages bloquées"
   },
   "dialog_title_manage_groups": {
      "message": "Gestion des groupes"
   },
   "dialog_title_modify_dial": {
      "message": "Modification de vignette"
   },
   "dialog_title_modify_group": {
      "message": "Modification de groupe"
   },
   "dialog_title_pick_user_images": {
      "message": "Choix de l'image que vous aimez"
   },
   "dialog_title_set_autoupdate_batch": {
      "message": "Définir la Mise à jour Automatique"
   },
   "dialog_title_view_group": {
      "message": "Visualisation du groupe"
   },
   "dlg_adddial_create_group": {
      "message": "Créer un nouveau groupe..."
   },
   "dlg_adddial_help_us_user_pics": {
      "message": "Aidez-nous à améliorer les images prédéfinies. Entrez l'adresse ou téléchargez vos logos personnalisés locaux de vos sites favoris. Ils seront dans la galerie des utilisateurs!"
   },
   "dlg_adddial_set_file": {
      "message": "Depuis un fichier local"
   },
   "dlg_alert_cannot_remove_group_text": {
      "message": "Ne peut pas enlever le dernier groupe"
   },
   "dlg_alert_cannot_remove_group_title": {
      "message": "Ne peut pas enlever le groupe"
   },
   "dlg_alert_dials_autoupdate_updated_text": {
      "message": "Vignettes mises à jour avec succès."
   },
   "dlg_alert_dials_autoupdate_updated_title": {
      "message": "Succès!"
   },
   "dlg_alert_fail_obtain_user_pics_text": {
      "message": "La librairie d'images des utilisateurs n'est pas disponible pour l'instant, veuillez rééssayer plus tard."
   },
   "dlg_alert_fail_obtain_user_pics_title": {
      "message": "Les images d'utilisateurs ne sont pas disponibles pour l'instant"
   },
   "dlg_alert_ok": {
      "message": " OK "
   },
   "dlg_alert_release_left_button": {
      "message": "Veuillez relâcher le bouton de la souris pour créer une copie d'écran!"
   },
   "dlg_alert_sd_locked_action_text": {
      "message": "Speed Dial est vérouillé. Veuillez le dévérouiller pour effectuer cette action."
   },
   "dlg_alert_sd_locked_action_title": {
      "message": "Accès refusé"
   },
   "dlg_alert_set_auto_preview_global_text": {
      "message": "Les vignettes manuelles ont été modifiées avec succès!"
   },
   "dlg_alert_set_auto_preview_global_title": {
      "message": "Succès!"
   },
   "dlg_alert_sync_on_another_driver_text": {
      "message": "D'autres données (Signets etc.) sont en cours de synchronisation. Veuillez attendre que la synchronisation soit complète"
   },
   "dlg_alert_sync_on_another_driver_title": {
      "message": "La synchronisation est active"
   },
   "dlg_alert_wait_importing_text": {
      "message": "Veuillez patienter pendant le processus d'importation"
   },
   "dlg_alert_wait_importing_title": {
      "message": "Veuillez patienter"
   },
   "dlg_button_add_deny_rule": {
      "message": "Ajouter une règle de blocage"
   },
   "dlg_button_add_dial": {
      "message": "Ajouter une vignette"
   },
   "dlg_button_add_group": {
      "message": "Ajouter un groupe"
   },
   "dlg_button_cancel": {
      "message": "Annuler"
   },
   "dlg_button_close": {
      "message": "Fermer"
   },
   "dlg_button_copy_to_clipboard": {
      "message": "Copier vers le presse-papiers"
   },
   "dlg_button_deny": {
      "message": "Bloquer"
   },
   "dlg_button_import": {
      "message": "Importer"
   },
   "dlg_button_modify_dial": {
      "message": "Modifier"
   },
   "dlg_button_modify_group": {
      "message": "Modifier le groupe"
   },
   "dlg_button_save": {
      "message": "Sauvegarder"
   },
   "dlg_confirm_cancel": {
      "message": "Annuler"
   },
   "dlg_confirm_dial_exists_text": {
      "message": "Une vignette avec cette adresse existe déjà. Continuer?"
   },
   "dlg_confirm_dial_exists_title": {
      "message": "Existe déjà?"
   },
   "dlg_confirm_disable_quick_preview_text": {
      "message": "Voulez-vous vraiment désactiver la prévisualisation rapide du gadget?"
   },
   "dlg_confirm_disable_quick_preview_title": {
      "message": "Confirmez votre action, SVP."
   },
   "dlg_confirm_import_text": {
      "message": "L'importation supprimera les vignettes actuelles de la base de données et remplacera les paramètres actuels par les paramètres de l'importation, continuer?"
   },
   "dlg_confirm_import_title": {
      "message": "Confirmez l'importation"
   },
   "dlg_confirm_ok": {
      "message": "OK"
   },
   "dlg_confirm_remove_dial_text": {
      "message": "Enlever cet objet?"
   },
   "dlg_confirm_remove_dial_title": {
      "message": "Êtes-vous sûr(e)?"
   },
   "dlg_confirm_remove_group_text": {
      "message": "%count% vignettes dans ce groupe"
   },
   "dlg_confirm_remove_group_title": {
      "message": "Êtes-vous sûr(e)?"
   },
   "dlg_confirm_remove_links_all_text": {
      "message": "Effacer ces liens?"
   },
   "dlg_confirm_remove_links_all_title": {
      "message": "Êtes-vous sûr(e)?"
   },
   "dlg_confirm_set_auto_preview_global_text": {
      "message": "Confirmez-vous, que toutes vos vignettes personnalisées soient réinitialisées?"
   },
   "dlg_confirm_set_auto_preview_global_title": {
      "message": "Réinitialisation des vignettes personnalisées"
   },
   "dlg_confirm_turn_off_autoupdate_globally_text": {
      "message": "Tous les paramètres de mises à jour automatiques des vignettes seront désactivés."
   },
   "dlg_confirm_turn_off_autoupdate_globally_title": {
      "message": "Confirmez votre action"
   },
   "dlg_dont_show_it_again": {
      "message": "Ne plus le montrer une nouvelle fois"
   },
   "dlg_importing_finished": {
      "message": "Succès! %groups% groupes importés et %dials% vignettes"
   },
   "dlg_importing_step1": {
      "message": "Step 1: Efface les anciennes données"
   },
   "dlg_importing_step2": {
      "message": "Step 2: Importe les préférences"
   },
   "dlg_importing_step3": {
      "message": "Step 3: Importe les domaines/Adresses bloqués"
   },
   "dlg_importing_step4": {
      "message": "Step 4: Importe les groupes"
   },
   "dlg_importing_step5": {
      "message": "Step 5: Importe les vignettes"
   },
   "dlg_manage_groups_add_group": {
      "message": "Ajouter un groupe"
   },
   "dlg_move_to_nosync_group_text": {
      "message": "Vous allez déplacer cette vignette vers le groupe \u003Cb>non synchronizé\u003C/b>.\u003Cbr/>Notez que cette vignette ne sera seulement visible que sur cet ordinateur. Elle \u003Cb>disparaîtra\u003C/b> sur les autres ordinateurs."
   },
   "dlg_move_to_nosync_group_title": {
      "message": "Déplacer la vignette dans le groupe non synchronisé"
   },
   "dlg_nosync_group_text": {
      "message": "Vous allez changer ce groupe synchronisé en \u003Cb>non synchronisé\u003C/b>. Notez que ce groupe ne sera seulement visible que sur cet ordinateur. Il \u003Cb>disparaîtra\u003C/b> sur les autres ordinateurs."
   },
   "dlg_nosync_group_title": {
      "message": "Changer un groupe synchronisé en non synchronisé"
   },
   "dow_0": {
      "message": "Sunday"
   },
   "dow_1": {
      "message": "Monday"
   },
   "dow_2": {
      "message": "Tuesday"
   },
   "dow_3": {
      "message": "Wednesday"
   },
   "dow_4": {
      "message": "Thursday"
   },
   "dow_5": {
      "message": "Friday"
   },
   "dow_6": {
      "message": "Saturday"
   },
   "dow_short_0": {
      "message": "Su"
   },
   "dow_short_1": {
      "message": "Mo"
   },
   "dow_short_2": {
      "message": "Tu"
   },
   "dow_short_3": {
      "message": "We"
   },
   "dow_short_4": {
      "message": "Th"
   },
   "dow_short_5": {
      "message": "Fr"
   },
   "dow_short_6": {
      "message": "Sa"
   },
   "error_already_exists": {
      "message": "Existe déjà"
   },
   "error_fail_get_title_dinamically": {
      "message": "Échec pour obtenir le titre dynamiquement"
   },
   "error_invalid_url": {
      "message": "Adresse invalide"
   },
   "error_must_be_filled": {
      "message": "Doit être rempli"
   },
   "error_not_image": {
      "message": "Le fichier sélectionné n'est pas une image"
   },
   "error_url_deny": {
      "message": "L'adresse est bloquée, Vérifiez les domaines bloqués dans les options"
   },
   "error_url_deny_host": {
      "message": "Le domaine est bloqué, Vérifiez vos domaines bloqués dans les options"
   },
   "error_url_deny_url": {
      "message": "L'adresse est bloquée, Vérifiez vos domaines bloqués dans les options"
   },
   "error_wrong_import_data": {
      "message": "Mauvaises données d'importation"
   },
   "extension_locale": {
      "description": "Pour un usage interne",
      "message": "en"
   },
   "month_0": {
      "message": "January"
   },
   "month_1": {
      "message": "February"
   },
   "month_10": {
      "message": "November"
   },
   "month_11": {
      "message": "December"
   },
   "month_2": {
      "message": "March"
   },
   "month_3": {
      "message": "April"
   },
   "month_4": {
      "message": "May"
   },
   "month_5": {
      "message": "June"
   },
   "month_6": {
      "message": "July"
   },
   "month_7": {
      "message": "August"
   },
   "month_8": {
      "message": "September"
   },
   "month_9": {
      "message": "October"
   },
   "newtab_3d_find_override": {
      "message": "Trouver \"Remplacer la liste de rendu logiciel\" et cliquer sur autoriser"
   },
   "newtab_3d_how_to_fix": {
      "message": "Comment le corriger :"
   },
   "newtab_3d_if_not_works": {
      "message": "Si cela ne vous aide pas - Essayez de mettre à jour les drivers de votre carte graphique"
   },
   "newtab_3d_install_new_drivers": {
      "message": "Avant de passer en mode 3D, vous devez mettre à jour les drivers de votre carte graphique"
   },
   "newtab_3d_last_step": {
      "message": "Si vous voyez encore ce message, cela signifie que votre navigateur ne supporte pas votre carte graphique pour afficher FVD Speed Dial en vue 3D."
   },
   "newtab_3d_note_dont_afraid": {
      "message": "Note: N'ayez pas peur d'activer cette caractéristique. Rien de mal ne va se passer."
   },
   "newtab_3d_open_new_tab": {
      "message": "Ouvrir un nouvel onglet"
   },
   "newtab_3d_restart": {
      "message": "Redémarrer"
   },
   "newtab_3d_restart_continue": {
      "message": "votre navigateur et admirez le nouveau look fantaisie en 3D."
   },
   "newtab_3d_type_flags": {
      "message": "Type \"chrome://flags\""
   },
   "newtab_3d_without_quotes": {
      "message": "sans citations"
   },
   "newtab_ad_install_text": {
      "message": "Voir l'application"
   },
   "newtab_all_group_title": {
      "message": "Populaire"
   },
   "newtab_apply_theme_bg": {
      "message": "Appliquer le thème d'arrière plan"
   },
   "newtab_apps_panel_open_desc": {
      "message": "Pressez \"Ctrl + Barre d'espace\" pour cacher/montrer le panneau des applications."
   },
   "newtab_big": {
      "message": "Grand"
   },
   "newtab_bottom_text_privacy_policy": {
      "message": "Privacy Policy"
   },
   "newtab_bottom_text_terms_of_use": {
      "message": "Terms of Use"
   },
   "newtab_cache_life_time": {
      "message": "Durée du Cache"
   },
   "newtab_can_turn_off_newtab_got_it": {
      "message": "Je l'ai. Merci."
   },
   "newtab_can_turn_off_newtab_msg": {
      "message": "Note: Vous pouvez désactiver FVD Speed Dial dans un nouvel onglet et seulement le lancer en pressant un bouton."
   },
   "newtab_can_turn_off_newtab_opt_app": {
      "message": "Options > Apparence"
   },
   "newtab_cancel_migrate": {
      "message": "annuler"
   },
   "newtab_cancel_theme_bg": {
      "message": "Annuler le thème d'arrière plan"
   },
   "newtab_cant_move_dials_in_popular": {
      "message": "Vous pouvez réarranger les vignettes dans n'importe quel groupe, excepté dans le \u003Cb>Groupe populaire\u003C/b>. Ce groupe réarrange les vignette selon leur popularité en nombre de clics."
   },
   "newtab_change_background": {
      "message": "Changer l'arrière plan"
   },
   "newtab_click_to_get_title": {
      "message": "Cliquer pour obtenir le titre"
   },
   "newtab_columns_auto": {
      "message": "Auto"
   },
   "newtab_custom": {
      "message": "Personnalisé"
   },
   "newtab_dblclick_to_expand": {
      "message": "Double Cliquer pour développer"
   },
   "newtab_default": {
      "message": "Par défaut"
   },
   "newtab_default_group": {
      "message": "Groupe par défaut"
   },
   "newtab_dial_clicks": {
      "message": "Clics"
   },
   "newtab_dials_search_input_placeholder": {
      "message": "Rechercher dans Speed Dial"
   },
   "newtab_dials_search_no_match": {
      "message": "Pas de résultat"
   },
   "newtab_dials_search_no_match_query": {
      "message": "Votre recherche: \u003Cstrong>\u003C/strong> ne se trouve dans aucune vignette/URL de Speed Dial."
   },
   "newtab_dials_search_try_on_web": {
      "message": "Essayer sur Internet? Ou appuyez sur la touche Entrée."
   },
   "newtab_disable_page_mod": {
      "message": "Désactiver ce gadget"
   },
   "newtab_do_not_display_migrate": {
      "message": "Ne plus le montrer."
   },
   "newtab_done": {
      "message": "Fait"
   },
   "newtab_enable_most_visited": {
      "message": "Permettre l'affichage des pages les plus visitées"
   },
   "newtab_enable_recently_closed": {
      "message": "Permettre l'affichage des pages fermées récemment"
   },
   "newtab_enable_speed_dial": {
      "message": "Autoriser Speed Dial"
   },
   "newtab_expand_all": {
      "message": "Toutes les développer"
   },
   "newtab_getting_title": {
      "message": "Obtention du titre..."
   },
   "newtab_global_options": {
      "message": "Options globales"
   },
   "newtab_groups": {
      "message": "Groupes"
   },
   "newtab_hide_all": {
      "message": "Tout cacher"
   },
   "newtab_hours": {
      "message": "Heure(s)"
   },
   "newtab_import_available": {
      "message": "Importation disponible"
   },
   "newtab_initialization_message": {
      "message": "Initialisation... Veuillez patienter..."
   },
   "newtab_instant_seach_preview": {
      "message": "Produit par le moteur de recherche Yahoo"
   },
   "newtab_instant_seach_preview_google": {
      "message": "Recherche instantanée"
   },
   "newtab_introduction_button_next": {
      "message": "Suite"
   },
   "newtab_introduction_button_prev": {
      "message": "Précédent"
   },
   "newtab_introduction_button_start": {
      "message": "Commençons!"
   },
   "newtab_introduction_last_step": {
      "message": "Dernière étape"
   },
   "newtab_introduction_opera_how_to_newtab": {
      "message": "How to set FVD Speed Dial as new tab?"
   },
   "newtab_introduction_opera_how_to_newtab_step1": {
      "message": "1) Install add Custom new tab page from"
   },
   "newtab_introduction_opera_how_to_newtab_step2": {
      "message": "2) Enter the URL in form"
   },
   "newtab_introduction_slide1_text": {
      "message": "Vous pouvez changer le look à tout instant par \u003Cb>un clic droit > Style\u003C/b> ou \u003Cb>dans Options > Apparence > Style\u003C/b>.\u003Cbr>\u003Cbr>\u003Cimg src=\"images/newtab/introduction/slide1_img.png\">"
   },
   "newtab_introduction_slide1_title": {
      "message": "Choisir le style commun de Speed Dial ou en 3D"
   },
   "newtab_introduction_slide2_text": {
      "message": "Cliquez sur les panneaux de gauche ou du bas pour activer les barres d'applications et de gadgets.\u003Cbr>\u003Cbr>\u003Cb>Astuce:\u003C/b> Utilisez la barre d'espace du clavier pour montrer/cacher les gadgets"
   },
   "newtab_introduction_slide2_title": {
      "message": "Vos applications et gadgets"
   },
   "newtab_introduction_slide3_text": {
      "message": "Vous avez seulement besoin de le sélectionner une fois et nous enregistrerons votre préférence"
   },
   "newtab_introduction_slide3_title": {
      "message": "Quel téléphone utilisez-vous?"
   },
   "newtab_introduction_title": {
      "message": "Bienvenue dans la présentation rapide de FVD Speed Dial!"
   },
   "newtab_last_used_group": {
      "message": "Dernier groupe utilisé"
   },
   "newtab_light_collapsed_message_text": {
      "message": "Double cliquer pour montrer Speed Dial"
   },
   "newtab_list": {
      "message": "Liste"
   },
   "newtab_listview_noitems": {
      "message": "Pas d'élements à afficher"
   },
   "newtab_listview_title": {
      "message": "Titre"
   },
   "newtab_listview_url": {
      "message": "URL"
   },
   "newtab_listviewmenu_add_dial": {
      "message": "Ajouter vignette"
   },
   "newtab_listviewmenu_delete_all": {
      "message": "Effacer tous les liens"
   },
   "newtab_listviewmenu_open_all": {
      "message": "Ouvrir tous les liens"
   },
   "newtab_make_as_homepage": {
      "message": "Définir comme page d'accueil"
   },
   "newtab_manage_groups": {
      "message": "Gérer les groupes"
   },
   "newtab_max_groups": {
      "message": "Nombre maximum de vignettes dans le groupe populaire:"
   },
   "newtab_medium": {
      "message": "Moyen"
   },
   "newtab_migrate_message": {
      "message": "Importer les données depuis d'autres modules"
   },
   "newtab_most_visited_label": {
      "message": "Les plus visitées (%count%)"
   },
   "newtab_mostvisited_ingroup": {
      "message": "Dans le groupe"
   },
   "newtab_mostvisited_ingroup_small": {
      "message": "G"
   },
   "newtab_mostvisited_interval_all_time": {
      "message": "Depuis le début"
   },
   "newtab_mostvisited_interval_month": {
      "message": "Dernier mois"
   },
   "newtab_mostvisited_interval_week": {
      "message": "Dernière semaine"
   },
   "newtab_mostvisited_views": {
      "message": "Vues"
   },
   "newtab_mostvisited_views_small": {
      "message": "V"
   },
   "newtab_no": {
      "message": "non"
   },
   "newtab_none": {
      "message": "Aucun"
   },
   "newtab_number_of_columns": {
      "message": "Nombre de colonnes"
   },
   "newtab_number_of_rows": {
      "message": "Nombre de lignes"
   },
   "newtab_offer_parallax_cancel": {
      "message": "Fermer"
   },
   "newtab_offer_parallax_description": {
      "message": "Allez sur FVD Speed Dial > Options globales > Options d'arrière plan > Choisir Parallaxe dans la liste déroulante des positions."
   },
   "newtab_offer_parallax_title": {
      "message": "Nouvelle fonctionnalité. Rendez votre image de fond dynamique, avec un effet de parallaxe."
   },
   "newtab_offer_parallax_try_parallax": {
      "message": "Essayez Parallaxe"
   },
   "newtab_offer_theme_bg": {
      "message": "Speed Dial est disponible pour appliquer le thème d'arrière plan actuel"
   },
   "newtab_offer_theme_download": {
      "message": "Téléchargement de l'arrière plan..."
   },
   "newtab_ondialsearch_placeholder": {
      "message": "Entrez votre recherche..."
   },
   "newtab_ops_3d_unavailable": {
      "message": "Oops, problème avec le mode 3D."
   },
   "newtab_options": {
      "message": "Options"
   },
   "newtab_or": {
      "message": "ou"
   },
   "newtab_popular_group_title": {
      "message": "Populaire"
   },
   "newtab_powerof_wrong_passcode_text": {
      "message": "Le mot de passe que vous avez entré est erroné"
   },
   "newtab_powerof_wrong_passcode_title": {
      "message": "Mauvais mot de passe"
   },
   "newtab_poweroff": {
      "message": "Éteindre"
   },
   "newtab_poweroff_desc": {
      "message": "Apprenez comment vous pouvez protéger vos vignettes rapides, des utilisateurs non désirés"
   },
   "newtab_poweroff_dont_show_again": {
      "message": "Ne plus le montrer"
   },
   "newtab_poweroff_enterpasscode": {
      "message": "Entrer le mot de passe"
   },
   "newtab_poweroff_feature": {
      "message": "Fonction d'extinction"
   },
   "newtab_preview": {
      "message": "Prévisualisation"
   },
   "newtab_quicksitemap_text": {
      "message": "Améliorez la navigation des sites Internet!"
   },
   "newtab_rate_appreciate": {
      "message": "Nous apprécions votre aide"
   },
   "newtab_rate_fvd_speed_dial": {
      "message": "FVD Speed Dial"
   },
   "newtab_rate_text": {
      "message": "Veuillez SVP écrire votre critique et nous donner une note d'évaluation."
   },
   "newtab_recently_closed_label": {
      "message": "Pages récemmement fermées (%count%)"
   },
   "newtab_restore_corrupted_files_msg1": {
      "message": "À la suite de facteurs/actions non identifiées d’autres programmes, certaines vignettes ont été endommagées et sont en cours de restauration à l’heure actuelle. Cela peut prendre un certain temps."
   },
   "newtab_restore_corrupted_files_msg2": {
      "message": "Pas d'inquiétude! Tout sera opérationnel sans délai!"
   },
   "newtab_restore_corrupted_files_title": {
      "message": "Les vignettes sont en cours de restauration…"
   },
   "newtab_restore_previous_session": {
      "message": "Restaurer la session précédente"
   },
   "newtab_restore_removed": {
      "message": "Restaurer les pages supprimées"
   },
   "newtab_search": {
      "message": "Recherche"
   },
   "newtab_search_input_placeholder": {
      "message": "Entrez votre recherche..."
   },
   "newtab_search_on_aliexpress": {
      "message": "Recherche AliExpress"
   },
   "newtab_search_on_amazon": {
      "message": "Recherche Amazon"
   },
   "newtab_search_on_billiger": {
      "message": "Recherche Billiger"
   },
   "newtab_search_on_ebay": {
      "message": "Recherche Ebay"
   },
   "newtab_search_on_google": {
      "message": "Recherche Google"
   },
   "newtab_search_on_yandex": {
      "message": "Recherche Yandex"
   },
   "newtab_show_hide": {
      "message": "Montrer/Cacher"
   },
   "newtab_show_last": {
      "message": "Afficher les X dernières"
   },
   "newtab_small": {
      "message": "Petit"
   },
   "newtab_speeddial_label": {
      "message": "Speed Dial (%count%)"
   },
   "newtab_start_migrate": {
      "message": "Commencer l'importation"
   },
   "newtab_sure": {
      "message": "Sûr(e)?"
   },
   "newtab_switch_to_standard": {
      "message": "Cliquer ici pour utiliser le mode standard"
   },
   "newtab_sync_button": {
      "message": "Synchronisation"
   },
   "newtab_sync_now": {
      "message": "Mettre à jour les statistiques"
   },
   "newtab_synchronization": {
      "message": "Synchronisation"
   },
   "newtab_themes_message_head": {
      "message": "WAOO! Thèmes disponibles!"
   },
   "newtab_themes_message_install": {
      "message": "Installez des thèmes!"
   },
   "newtab_themes_message_text": {
      "message": "Installer des thèmes pour FVD Speed Dial"
   },
   "newtab_thumbnails": {
      "message": "Vignettes"
   },
   "newtab_title": {
      "description": "Titre d'un nouvel onglet",
      "message": "FVD Speed Dial"
   },
   "newtab_voice_search": {
      "message": "Recherche vocale"
   },
   "newtab_widgets_panel_move_or_delete": {
      "message": "Déplacer ou effacer des gadgets"
   },
   "newtab_widgets_panel_not_found": {
      "message": "Clic + bouton pour ajouter des gadgets!"
   },
   "newtab_widgets_panel_open_desc": {
      "message": "Pressez \"la barre d'espace\" pour cacher/montrer le panneau des gadgets."
   },
   "newtab_yes": {
      "message": "Oui"
   },
   "options_all_time": {
      "message": "Depuis le début"
   },
   "options_apply_changes": {
      "message": "Appliquer Changements"
   },
   "options_available_in_standard_theme_only": {
      "message": "Disponible seulement dans le thème standard."
   },
   "options_back_to_speeddial": {
      "message": "Retourner à Speed Dial"
   },
   "options_background_color": {
      "message": "Couleur d'arrière plan"
   },
   "options_background_options": {
      "message": "Options d'arrière plan"
   },
   "options_backup_via_eversync_suggestion": {
      "message": "Important! N'oubliez pas de sauvegarder vos vignettes et images personnalisées pour les restaurer à tout moment."
   },
   "options_backup_via_eversync_suggestion_button": {
      "message": "Sauvegarde vignettes"
   },
   "options_bg_color_enabled": {
      "message": "Activé"
   },
   "options_bg_from_theme": {
      "message": "Depuis le thème actif"
   },
   "options_bg_from_url": {
      "message": "Depuis l'URL"
   },
   "options_bg_image_type": {
      "message": "Position:"
   },
   "options_bg_install_themes": {
      "message": "Nouveau! Installez des thèmes!"
   },
   "options_blocked_domains": {
      "message": "Domaines Bloqués"
   },
   "options_cdsize_limits": {
      "message": "Min.: 150, Max.: 364px"
   },
   "options_cdsize_title": {
      "message": "Taille de vignette personnalisée"
   },
   "options_center": {
      "message": "Centrée"
   },
   "options_close": {
      "message": "Fermer"
   },
   "options_confirm_reset_clicks_text": {
      "message": "Voulez-vous vraiment réinitialiser le nombre de clics?"
   },
   "options_confirm_reset_clicks_title": {
      "message": "Confirmez votre action"
   },
   "options_current_tab": {
      "message": "Onglet courant"
   },
   "options_default_dial": {
      "message": "Module par défaut"
   },
   "options_default_group": {
      "message": "Par défaut:"
   },
   "options_default_screen_delay": {
      "message": "Délai de prévisualisation par défaut (ms):"
   },
   "options_dials_opacity": {
      "message": "Opacité des vignettes"
   },
   "options_dials_opening": {
      "message": "Ouverture des vignettes dans:"
   },
   "options_disable_custom_search": {
      "message": "Désactiver la recherche"
   },
   "options_display_dial_background": {
      "message": "Voir Arrière-plan par défaut des vignettes"
   },
   "options_display_dial_borders": {
      "message": "Afficher les bordures de vignettes"
   },
   "options_display_in_new_tab": {
      "message": "Afficher dans un nouvel onglet"
   },
   "options_display_mirror": {
      "message": "Miroir de l'affichage"
   },
   "options_display_plus_cells": {
      "message": "Voir le bouton [+] de Speed Dial"
   },
   "options_display_popular_group": {
      "message": "Afficher le groupe populaire"
   },
   "options_display_quick_menu_and_clicks": {
      "message": "Voir les clics et le menu rapide"
   },
   "options_display_superfish": {
      "message": "Suggestions Superfish"
   },
   "options_donate_message": {
      "message": "Merci de votre intérêt à nous faire un don! Votre don aidera à veiller à ce que nous puissions continuer à créer d'excellents logiciels, et les garder autant que possible gratuits. Comment est-il gratuit si nous vous demandons de donner? C'est la grande partie - Si vous ne pouvez pas vous le permettre, ou vous n'êtes pas sûr que ça le vaut, nous vous invitons à continuer à utiliser gratuitement notre logiciel.\n\nCréer, améliorer et étendre notre extension FVD Speed dial, coûte beaucoup d'argent.\n\nNous espérons vraiment que les utilisateurs satsifaits ou les utilisateurs qui apprécient notre initiative, soient prêts à donner de l'argent (dès qu'ils peuvent se le permettre) nous permettant d'atteindre autant de personnes que possible dans le monde entier.\n\n Les dons reçus ne seront pas utilisés pour payer des salaires ou tous coûts indirects qui ne soient pas directement liés à maintenir ce service sur Internet."
   },
   "options_enable": {
      "message": "Activer"
   },
   "options_enable_dials_search": {
      "message": "Activer la recherche dans Speed Dial"
   },
   "options_enable_ondial_search": {
      "message": "Activer la recherche sur les vignettes"
   },
   "options_enable_search": {
      "message": "Activer la recherche"
   },
   "options_enable_search_preview": {
      "message": "Activer la prévisualisation des recherches"
   },
   "options_enable_surfcanyon": {
      "message": "Activer les recherches affinées"
   },
   "options_enable_widgets_autoscroll": {
      "message": "Activer le défilement automatique"
   },
   "options_export": {
      "message": "Exporter"
   },
   "options_fill": {
      "message": "Étirée"
   },
   "options_fit": {
      "message": "Ajustée"
   },
   "options_font_bolder": {
      "message": "Gras"
   },
   "options_font_color": {
      "message": "Couleur:"
   },
   "options_font_size": {
      "message": "Taille:"
   },
   "options_fonts_options": {
      "message": "Options des polices de caractères"
   },
   "options_global_options": {
      "message": "Options globales"
   },
   "options_global_tabs_appearance": {
      "message": "Apparence"
   },
   "options_global_tabs_main": {
      "message": "Général"
   },
   "options_groups": {
      "message": "Groupes"
   },
   "options_help": {
      "message": "Help"
   },
   "options_help_url": {
      "message": "https://everhelper.desk.com/customer/en/portal/articles/1178274-faq-fvd-speed-dial-for-google-chrome"
   },
   "options_image_url": {
      "message": "Source de l'image"
   },
   "options_import": {
      "message": "Importer"
   },
   "options_import_export": {
      "message": "Importation/Exportation"
   },
   "options_last_month": {
      "message": "Dernier mois"
   },
   "options_last_selected": {
      "message": "Dernier sélectionné"
   },
   "options_last_week": {
      "message": "Dernière semaine"
   },
   "options_list_links": {
      "message": "Liste des liens"
   },
   "options_load_and_preview": {
      "message": "Prévisualisation"
   },
   "options_main_button_action": {
      "message": "Toolbar button action"
   },
   "options_main_button_action_add_site_to_sd": {
      "message": "Add the active site to Speed Dial"
   },
   "options_main_button_action_sd_in_active_tab": {
      "message": "Open Speed Dial in the active tab"
   },
   "options_main_button_action_sd_in_new_tab": {
      "message": "Open Speed Dial in a new tab"
   },
   "options_manage_blocked": {
      "message": "Gérer"
   },
   "options_manage_groups": {
      "message": "Gérer les groupes"
   },
   "options_max_dials_in_popular_group": {
      "message": "Vignettes maximums dans le groupe populaire"
   },
   "options_most_visited": {
      "message": "Les plus visitées"
   },
   "options_most_visited_options": {
      "message": "Options des pages les plus visitées"
   },
   "options_new_tab": {
      "message": "Nouvel onglet"
   },
   "options_new_tab_background": {
      "message": "Nouvel onglet (en arrière plan)"
   },
   "options_noimage": {
      "message": "Pas d'image"
   },
   "options_other_texts": {
      "message": "Autres textes"
   },
   "options_parallax_option": {
      "message": "Parallaxe"
   },
   "options_parallax_strength": {
      "message": "Force de l'effet: "
   },
   "options_powerof_password_restore_text": {
      "message": "Le mot de passe a été envoyé avec succès dans votre messagerie"
   },
   "options_powerof_password_restore_title": {
      "message": "Mot de passe restauré"
   },
   "options_poweroff_10min": {
      "message": "10 min."
   },
   "options_poweroff_15min": {
      "message": "15 min."
   },
   "options_poweroff_30min": {
      "message": "30 min."
   },
   "options_poweroff_3min": {
      "message": "3 min."
   },
   "options_poweroff_5min": {
      "message": "5 min."
   },
   "options_poweroff_60min": {
      "message": "60 min."
   },
   "options_poweroff_change_passcode": {
      "message": "Changer de mot de passe"
   },
   "options_poweroff_change_passcode_button": {
      "message": "Changement mot se passe"
   },
   "options_poweroff_create_passcode": {
      "message": "Créer un mot de passe"
   },
   "options_poweroff_create_passcode_button": {
      "message": "Créer mot de passe"
   },
   "options_poweroff_email": {
      "message": "Adresse E-Mail de récupération:"
   },
   "options_poweroff_error_email_wrong_format": {
      "message": "L'adresse E-mail est dans un mauvais format"
   },
   "options_poweroff_error_empty_passcode": {
      "message": "Le mot de passe est vide"
   },
   "options_poweroff_error_passcode_dont_match": {
      "message": "Les mots de passes ne fonctionnent pas"
   },
   "options_poweroff_error_wrong_pass_code": {
      "message": "Mauvais mot de passe"
   },
   "options_poweroff_idle_timeout_enable": {
      "message": "Activer l'extinction après un délai d'inactivité de:"
   },
   "options_poweroff_new_passcode": {
      "message": "Nouveau mot de passe *:"
   },
   "options_poweroff_old_passcode": {
      "message": "Ancien mot de passe:"
   },
   "options_poweroff_options": {
      "message": "Extinction"
   },
   "options_poweroff_passcode": {
      "message": "Mot de passe:"
   },
   "options_poweroff_passcode_changed_text": {
      "message": "Le mot de passe a été changé avec succès."
   },
   "options_poweroff_passcode_changed_title": {
      "message": "Succès"
   },
   "options_poweroff_passcode_setuped": {
      "message": "Le mot de passe a été défini."
   },
   "options_poweroff_repeat_passcode": {
      "message": "Répéter le mot de passe:"
   },
   "options_poweroff_restore_button": {
      "message": "Envoyer le mot de passe à l'adresse E-Mail de récupération"
   },
   "options_poweroff_star_desc": {
      "message": "* Pour enlever le mot de passe, laisser le champ Nouveau mot de passe, vide."
   },
   "options_poweroff_tab_change_pass_title": {
      "message": "Changer le mot de passe"
   },
   "options_poweroff_tab_desc_1": {
      "message": "Créez votre mot de passe personnel pour débloquer vos vignettes."
   },
   "options_poweroff_tab_desc_2": {
      "message": "Après avoir cliqué sur le bouton d'extinction, vos vignettes seront cachés et le seul moyen pour les débloquer sera d'entrer le mot de passe."
   },
   "options_poweroff_tab_desc_3": {
      "message": "c'est une fonctionnalité astucieuse si vous souhaitez que personne ne regarde vos vignettes sans vous."
   },
   "options_poweroff_tab_main_title": {
      "message": "Principal"
   },
   "options_poweroff_tab_restore_title": {
      "message": "Restaurer le mot de passe"
   },
   "options_preload_search_items": {
      "message": "Pre-load related search results"
   },
   "options_premium_for_share": {
      "message": "Premium gratuitement!"
   },
   "options_quick_preview": {
      "message": "Prévisualisation rapide du gadget"
   },
   "options_recently_closed": {
      "message": "Pages récemment fermées"
   },
   "options_recently_closed_max_most_visited": {
      "message": "(Max.: 75)"
   },
   "options_recently_closed_max_show_last": {
      "message": "(Max.: 100)"
   },
   "options_recently_closed_options": {
      "message": "Options des pages récemment fermées"
   },
   "options_refresh": {
      "message": "Rafraîchir"
   },
   "options_release_notes": {
      "message": "Release Notes"
   },
   "options_release_notes_url": {
      "message": "http://everhelper.me/release-notes-en.php"
   },
   "options_reset_clicks": {
      "message": "Réinitialiser les clics"
   },
   "options_reset_speed_dial_clicks": {
      "message": "Réinitialiser les clics des vignettes"
   },
   "options_restore_default": {
      "message": "Restaurer par défaut"
   },
   "options_scrolling": {
      "message": "Type de défilement des vignettes"
   },
   "options_scrolling_horizontal": {
      "message": "Horizontal"
   },
   "options_scrolling_vertical": {
      "message": "Vertical"
   },
   "options_sd_preview_settings": {
      "message": "Paramètres de prévisualisation de Speed Dial"
   },
   "options_set_auto_preview": {
      "message": "Définir miniatures manuelles -> Auto."
   },
   "options_set_auto_preview_button": {
      "message": "Définir la prévisualisation automatique"
   },
   "options_set_dials_to_auto_update": {
      "message": "Définir M.A.J Auto."
   },
   "options_show_icons_and_titles_above_dials": {
      "message": "Voir icônes et titres en haut des vignettes"
   },
   "options_show_in_context_menu": {
      "message": "Voir dans le menu contextuel (Clic droit)"
   },
   "options_show_last": {
      "message": "Afficher les X dernières:"
   },
   "options_show_title_url_list_mode": {
      "message": "Afficher les titres/URL (Mode Liste)"
   },
   "options_show_urls_under_dials": {
      "message": "Voir adresses sous les vignettes"
   },
   "options_sort_by": {
      "message": "Trier par"
   },
   "options_speed_dial": {
      "message": "Speed Dial"
   },
   "options_speed_dial_options": {
      "message": "Options de Speed Dial"
   },
   "options_speeddial_max_in_popular": {
      "message": "(Max.: 50)"
   },
   "options_start_donate": {
      "message": "Faire un don"
   },
   "options_stretch": {
      "message": "Étendue"
   },
   "options_submit_bug": {
      "message": "Soumettre un Bug"
   },
   "options_submit_suggestion": {
      "message": "Soumettre une suggestion"
   },
   "options_success_reset_clicks_text": {
      "message": "Clics réinitialisés avec succès!"
   },
   "options_success_reset_clicks_title": {
      "message": "Succès!"
   },
   "options_sync_link": {
      "message": "Installer depuis le Google Web Store"
   },
   "options_sync_link_opera": {
      "message": "Install from Opera Webstore"
   },
   "options_sync_need_install": {
      "message": "Avant d'utiliser la synchronisation, vous devez d'abord installer l'extension EverSync"
   },
   "options_sync_need_install_ability_1": {
      "message": "Synchronisez vos vignettes."
   },
   "options_sync_need_install_ability_10": {
      "message": "gérez les favoris et Speed Dial."
   },
   "options_sync_need_install_ability_11": {
      "message": "Serveur de Sauvegardes automatiques et de restauration."
   },
   "options_sync_need_install_ability_2": {
      "message": "Synchronisez vos groupes."
   },
   "options_sync_need_install_ability_3": {
      "message": "Synchronisez vos images personnalisées."
   },
   "options_sync_need_install_ability_4": {
      "message": "Utilisez le sur Firefox, Chrome, Opera, téléphones mobiles, différents PCs."
   },
   "options_sync_need_install_ability_5": {
      "message": "D'autres fonctionnalités vont arriver (Synchronisation des favoris, Historiques, Notes...)."
   },
   "options_sync_need_install_ability_6": {
      "message": "Synchronisez vos favoris Firefox, Chrome, Opera, téléphones mobiles."
   },
   "options_sync_need_install_ability_7": {
      "message": "Synchronisez vos dossiers."
   },
   "options_sync_need_install_ability_8": {
      "message": "Copiez vos favoris vers FVD Speed Dial et de Speed Dial vers vos favoris."
   },
   "options_sync_need_install_ability_9": {
      "message": "Poubelle / Favoris / Privé / Archive / Recherche avancée et d'autres fonctionnalités."
   },
   "options_sync_need_install_desc": {
      "message": "Pour utiliser la synchronisation de Fvd, vous devez installer le module d'extension EverSync:"
   },
   "options_sync_need_install_everhelper": {
      "message": "Votre espace client EverHelper:"
   },
   "options_sync_need_install_fvd_speeddial": {
      "message": "FVD Speed Dial:"
   },
   "options_sync_need_install_fvd_sync": {
      "message": "Synchronisez les favoris:"
   },
   "options_sync_warning_line_1": {
      "message": "\u003Cb>Ce module nécessite une permission appelée \"Accès à toutes les données de votre ordinateur\"\u003C/b>"
   },
   "options_sync_warning_line_2": {
      "message": "Cela ne veut pas dire que notre extension accèdera à tous vos fichiers!"
   },
   "options_sync_warning_line_3": {
      "message": "Nous avons \u003Cb>seulement besoin d'accéder à un fichier de favoris dans l'environnement Chrome.\u003C/b>"
   },
   "options_sync_warning_line_4": {
      "message": "Dès que vous obtenez la permission d'écraser le fichier, Chrome l'appelera \"Accès complet\"."
   },
   "options_sync_warning_line_5": {
      "message": "SVP, ne devenez pas paranoïaque avec çà! Chrome Web Store teste attentivement ses extensions!!!"
   },
   "options_text_in_list_mode": {
      "message": "Texte dans le mode Liste"
   },
   "options_tile": {
      "message": "Haute"
   },
   "options_title": {
      "message": "Options FVD Speed Dial"
   },
   "options_title_for_dials": {
      "message": "Titre (pour les vignettes)"
   },
   "options_turn_off_dials_auto_update": {
      "message": "Désactiver M.A.J Auto."
   },
   "options_url_for_dials": {
      "message": "URL (pour les vignettes)"
   },
   "options_widgets_autoscroll_speed": {
      "message": "Vitesse de de défilement automatique"
   },
   "options_widgets_bgcolor_title": {
      "message": "Couleur d'arrière plan du panneau des gadgets"
   },
   "options_widgets_enabled_title": {
      "message": "Activer les gadgets"
   },
   "options_widgets_opacity_title": {
      "message": "Opacité du panneau des gadgets"
   },
   "options_widgets_options": {
      "message": "Options des gadgets"
   },
   "popup_options": {
      "message": "Options"
   },
   "popup_speed_dial": {
      "message": "Speed Dial"
   },
   "sah_copied": {
      "message": "Copié!"
   }
}
