www.google-analytics.com:HSTS	0	16906	1471579014573,1,0
reminders-pa.clients6.google.com:HSTS	0	16906	1471579015828,1,1
apis.google.com:HSTS	0	16906	1471579015521,1,0
accounts.google.com:HSTS	0	16906	1471585969411,1,1
