{
   "alert_window_action_after_plugin_sync_1": {
      "message": "You haven't restarted Chrome Browser."
   },
   "alert_window_action_after_plugin_sync_2": {
      "message": "All changes will be overwritten after restart."
   },
   "alert_window_action_after_plugin_sync_3": {
      "message": "Please, restart browser and than make new changes with your bookmarks!"
   },
   "alert_window_action_after_plugin_sync_title": {
      "message": "Warning!"
   },
   "alert_window_close": {
      "message": "I've got it. Thanks!"
   },
   "alert_window_dont_display_again": {
      "message": "Don't show it again"
   },
   "alert_window_download_eversync_desktop": {
      "message": "Download and Install EverSync Desktop"
   },
   "alert_window_large_sync_button_cancel": {
      "message": "Cancel Sync"
   },
   "alert_window_large_sync_button_proceed_manually": {
      "message": "Proceed Manually"
   },
   "alert_window_large_sync_text": {
      "message": "Google API policy doesn't allow to make more than 100 actions in hour. You need to sync bookmarks manually."
   },
   "alert_window_large_sync_title": {
      "message": "Large sync alert"
   },
   "alert_window_must_restart_after_large_sync": {
      "message": "Important! You must restart browser to finish sync!"
   },
   "alert_window_must_restart_after_large_sync_title": {
      "message": "Important!"
   },
   "alert_window_need_sync_software_text": {
      "message": "Due to New Chrome limitation you have to install EverSync for your desktop."
   },
   "alert_window_need_sync_software_title": {
      "message": "You have to install additional software to continue"
   },
   "alert_window_remove_unsorted_folder_text": {
      "message": "Unsorted is system folder you cannot move it"
   },
   "alert_window_remove_unsorted_folder_title": {
      "message": "Operation not allowed"
   },
   "alert_window_sync_timeout_after_action_text": {
      "message": "Ops, Sync will be available in 10 seconds..."
   },
   "alert_window_sync_timeout_after_sync_text": {
      "message": "Ops, You can sync only once every 10 seconds..."
   },
   "alert_window_sync_timeout_title": {
      "message": "Please wait..."
   },
   "bg_bookmarks_undifined_parent": {
      "message": "Undefined"
   },
   "bg_bookmarks_unsorted_folder_name": {
      "message": "Unsorted Bookmarks"
   },
   "confirm_change_password_desc": {
      "message": "Change password confirm key has been sent to your E-Mail"
   },
   "confirm_really_restore_bookmarks_text": {
      "message": "This action will ovewrite your current bookmarks set, continue?"
   },
   "confirm_really_restore_bookmarks_title": {
      "message": "Warning!"
   },
   "confirm_really_restore_sd_text": {
      "message": "This action will ovewrite your current groups and dials, continue?"
   },
   "confirm_really_restore_sd_title": {
      "message": "Warning!"
   },
   "confirm_remove_account_text": {
      "message": "Do you really want to remove your sync account with all data?"
   },
   "confirm_remove_account_title": {
      "message": "Remove account?"
   },
   "dlg_alert_change_password_success_text": {
      "message": "Password changed sucessfully!"
   },
   "dlg_alert_change_password_success_title": {
      "message": "Password changed"
   },
   "dlg_alert_ok": {
      "message": "OK"
   },
   "dlg_alert_sync_failed_chrome_quota_exceed_text": {
      "message": "Browser quota exceed. Please, try again later."
   },
   "dlg_alert_sync_failed_chrome_quota_exceed_title": {
      "message": "Quota Exceed"
   },
   "dlg_alert_sync_failed_text": {
      "message": "Sync server returns error"
   },
   "dlg_alert_sync_failed_title": {
      "message": "Sync Failed"
   },
   "dlg_alert_sync_quota_exceed_already_items": {
      "message": "Already in database items"
   },
   "dlg_alert_sync_quota_exceed_fix_it": {
      "message": "Request additional quote!"
   },
   "dlg_alert_sync_quota_exceed_max_items": {
      "message": "Max allowed items"
   },
   "dlg_alert_sync_quota_exceed_max_items_trashed": {
      "message": "Max items in trash"
   },
   "dlg_alert_sync_quota_exceed_text": {
      "message": "Sync quota has been exceeded"
   },
   "dlg_alert_sync_quota_exceed_title": {
      "message": "Sync Failed"
   },
   "dlg_alert_sync_quota_exceed_upload_attempt": {
      "message": "Current upload attempt"
   },
   "dlg_alert_warning_full_access_text": {
      "message": "\u003Cb>Sync addon requires  permission which is called \"Access to all data on computer\"\u003C/b>\u003Cbr>It doesn't mean that our addon will access to all your files!\u003Cbr>We need \u003Cb>access only to one bookmark file in Chrome environment.\u003C/b>\u003Cbr>As soon as you get permission to overwrite file(s), Chrome calls it \"Full access\".\u003Cbr>Please, do not get paranoid with that! Chrome Webstore manually reviews such addons!!!"
   },
   "dlg_alert_warning_full_access_title": {
      "message": "Attention!"
   },
   "dlg_alert_wrong_login_password_text": {
      "message": "Incorrect username or password. Please, Sign In again."
   },
   "dlg_alert_wrong_login_password_title": {
      "message": "Incorrect username or password"
   },
   "dlg_bookmarks_confirm_overwrite_server_data_text": {
      "message": "Are you sure you want to overwrite server data?"
   },
   "dlg_bookmarks_confirm_overwrite_server_data_title": {
      "message": "Confirm your choice"
   },
   "dlg_confirm_abort_sync_text": {
      "message": "Do you really want to abort current sync process?"
   },
   "dlg_confirm_abort_sync_title": {
      "message": "Abort current sync"
   },
   "dlg_confirm_cancel": {
      "message": "Cancel"
   },
   "dlg_confirm_ok": {
      "message": "OK"
   },
   "dlg_speeddial_confirm_overwrite_server_data_text": {
      "message": "Are you sure you want to overwrite server data?"
   },
   "dlg_speeddial_confirm_overwrite_server_data_title": {
      "message": "Confirm your choice"
   },
   "dlg_sync_in_progress_before_close": {
      "message": "Synchronization in progress... Do you really want to close this page?"
   },
   "dlg_sync_manual_sync_in_process": {
      "message": "Note: Due to Google Chrome Copy/Write Limits we have to manually overwrite your bookmarks file. Your data won't be lost."
   },
   "dlg_sync_manual_sync_in_process_msg2": {
      "message": "restart Chrome Browser when sync is finished."
   },
   "dlg_sync_manual_sync_in_process_msg3": {
      "message": "If you won't restart it and create new bookmarks, they will be lost when you restart your browser."
   },
   "dlg_sync_manual_sync_in_process_must": {
      "message": "must"
   },
   "dlg_sync_manual_sync_in_process_you": {
      "message": "You"
   },
   "dlg_sync_manual_sync_success": {
      "message": "Important! Your bookmarks file was overwritten! To apply changes and finish Sync you have to restart your Chrome Browser."
   },
   "dlg_sync_progress_aborting": {
      "message": "Aborting..."
   },
   "dlg_sync_progress_apply_changes": {
      "message": "Apply Changes"
   },
   "dlg_sync_progress_bottom_text": {
      "message": "This step usually takes 10 to 40 seconds. Please be patient..."
   },
   "dlg_sync_progress_cancel": {
      "message": "Cancel Sync"
   },
   "dlg_sync_progress_close": {
      "message": "Close"
   },
   "dlg_sync_progress_dials": {
      "message": "Dials"
   },
   "dlg_sync_progress_groups": {
      "message": "Groups"
   },
   "dlg_sync_progress_progress": {
      "message": "Progress:"
   },
   "dlg_sync_progress_sync_failed": {
      "message": "Sync Failed"
   },
   "dlg_sync_progress_sync_success": {
      "message": "Sync Successful"
   },
   "dlg_sync_progress_synced": {
      "message": "Synced"
   },
   "dlg_sync_progress_title": {
      "message": "Syncing..."
   },
   "dlg_sync_progress_title_backup": {
      "message": "Backuping..."
   },
   "dlg_sync_progress_title_restore": {
      "message": "Restoring..."
   },
   "dlg_sync_progress_type_create": {
      "message": "Create data:"
   },
   "dlg_sync_progress_type_remove": {
      "message": "Remove old data:"
   },
   "dlg_sync_progress_why_failed": {
      "message": "Why?"
   },
   "dlg_sync_quota_exceed_text": {
      "message": "You can use Merge / Download Bookmarks features 4 times a day due Google Api Restrictions."
   },
   "dlg_sync_quota_exceed_title": {
      "message": "Sync quota exceed"
   },
   "extension_locale": {
      "description": "For internal usage",
      "message": "en"
   },
   "option_cancel_change_password": {
      "message": "Cancel"
   },
   "option_change_password_confirm_key": {
      "message": "Confirm key"
   },
   "option_confirm_key_is_wrong": {
      "message": "Confirm key is wrong"
   },
   "option_login_email": {
      "message": "E-Mail"
   },
   "option_login_password": {
      "message": "Password"
   },
   "option_new_password": {
      "message": "New Password"
   },
   "option_new_password_repeat": {
      "message": "New Password Repeat"
   },
   "option_old_password": {
      "message": "Old Password"
   },
   "option_old_password_is_wrong": {
      "message": "Old password is wrong"
   },
   "options_action_login": {
      "message": "Login"
   },
   "options_action_register": {
      "message": "Register"
   },
   "options_action_restore_password": {
      "message": "Restore Password"
   },
   "options_backup_online_access": {
      "message": "Online Access"
   },
   "options_backup_warning_message": {
      "message": "Important! These backups are stored in EverSync local database. If you delete this extension, this database will be also deleted! Use online access and online backups."
   },
   "options_backups_count_dials": {
      "message": "Dials"
   },
   "options_backups_count_groups": {
      "message": "Groups"
   },
   "options_backups_count_items": {
      "message": "Items"
   },
   "options_backups_date": {
      "message": "Date"
   },
   "options_backups_restore": {
      "message": "Restore"
   },
   "options_bookmarks_backup_first_line": {
      "message": "Just make sure that your bookmarks won't be lost, we automatically made the backup of all your bookmarks."
   },
   "options_bookmarks_backup_make": {
      "message": "Backup bookmarks"
   },
   "options_bookmarks_backup_restore": {
      "message": "Restore bookmarks"
   },
   "options_bookmarks_backup_second_line": {
      "message": "All your bookmarks saved on your computer."
   },
   "options_bookmarks_backup_total_bookmarks": {
      "message": "Total backuped bookmarks"
   },
   "options_bookmarks_in_browser": {
      "message": "In Browser:"
   },
   "options_bookmarks_watch_video_guide": {
      "message": "Watch Video Guide"
   },
   "options_button_cancel": {
      "message": "Cancel"
   },
   "options_button_change_password": {
      "message": "Change Password"
   },
   "options_button_change_password_confirm": {
      "message": "Confirm Change Password"
   },
   "options_button_confirm": {
      "message": "Confirm"
   },
   "options_button_login": {
      "message": "Login"
   },
   "options_button_register": {
      "message": "Register"
   },
   "options_button_restore": {
      "message": "Restore"
   },
   "options_change_password": {
      "message": "Change Password"
   },
   "options_close_this_page": {
      "message": "Close this page"
   },
   "options_confirm_code": {
      "message": "Confirm Code"
   },
   "options_confirm_desc": {
      "message": "Check your e-mail to confirm registration"
   },
   "options_default_desc": {
      "message": "Select action..."
   },
   "options_download": {
      "message": "Download"
   },
   "options_download_desc": {
      "message": "Copy data from Server to your Computer"
   },
   "options_ds_chromsync_btn_close": {
      "message": "I'm ready to Sync!"
   },
   "options_ds_chromsync_btn_open_settings": {
      "message": "Open Chrome Settings"
   },
   "options_ds_chromsync_btn_view_guide": {
      "message": "View Video Guide"
   },
   "options_ds_chromsync_confirm_text": {
      "message": "I confirm that bookmarks are disabled."
   },
   "options_ds_chromsync_important": {
      "message": "Important!"
   },
   "options_ds_chromsync_l1": {
      "message": "If your Chrome Sync is enabled, please read it:"
   },
   "options_ds_chromsync_l2": {
      "message": "In order to sync bookmarks with our extension you need to \u003Cb>disable\u003C/b> \"Bookmarks\" sync in Chrome Browser."
   },
   "options_ds_chromsync_l3": {
      "message": "Click \"\u003Cb>Open Chrome Settings.\u003C/b>\" > \"\u003Cb>Sign In\u003C/b>\" section click \"\u003Cb>Advanced Settings\u003C/b>\" > Uncheck \"\u003Cb>Bookmarks\u003C/b>\"."
   },
   "options_ds_chromsync_l4": {
      "message": "Restart Chrome Browser."
   },
   "options_enable_autobackup": {
      "message": "Enable Auto-Backup"
   },
   "options_enable_autosync": {
      "message": "Enable auto sync(every 30 mins)"
   },
   "options_error_account_not_found": {
      "message": "Account not found"
   },
   "options_error_confirm_failed": {
      "message": "Confirmation Failed"
   },
   "options_error_email_alredy_registered": {
      "message": "This E-Mail already registered"
   },
   "options_error_invalid_email": {
      "message": "Invalid E-Mail address format"
   },
   "options_error_login_failed": {
      "message": "E-mail/Password is wrong"
   },
   "options_error_password_too_short": {
      "message": "Password is too short( must be not less than 8 symbols )"
   },
   "options_error_passwords_dont_match": {
      "message": "Password dont match"
   },
   "options_error_undefined_error": {
      "message": "Undefined Server Error(%number%)"
   },
   "options_fix_quota_link": {
      "message": "Increase Limits"
   },
   "options_fvd_sync": {
      "message": "EverSync"
   },
   "options_get_pro_account": {
      "message": "Get Pro Account!"
   },
   "options_how_to_use": {
      "message": "How to use"
   },
   "options_init_sync_desc": {
      "message": "Before start syncing you have to select one of the following actions"
   },
   "options_legend_confirm": {
      "message": "Confirm Registration"
   },
   "options_legend_login": {
      "message": "Sign in"
   },
   "options_legend_register": {
      "message": "Create new Account"
   },
   "options_legend_restore_password": {
      "message": "Restore Password"
   },
   "options_logout": {
      "message": "Logout"
   },
   "options_manual_sync": {
      "message": "Manual Sync"
   },
   "options_merge": {
      "message": "Merge"
   },
   "options_merge_desc": {
      "message": "Data from Server and Computer will be merged (Note: Server has higher priority)."
   },
   "options_merge_local_and_server_data": {
      "message": "Merge local and server data"
   },
   "options_not_found_backups": {
      "message": "No backups"
   },
   "options_online": {
      "message": "online"
   },
   "options_overwrite_desc": {
      "message": "Copy data from your Computer to Server"
   },
   "options_overwrite_local_data": {
      "message": "Overwrite local data"
   },
   "options_overwrite_server_data": {
      "message": "Overwrite server data"
   },
   "options_premium_for_share": {
      "message": "Get Premium account for Free!"
   },
   "options_quota_archived": {
      "message": "Archived"
   },
   "options_quota_bookmarks": {
      "message": "Bookmarks"
   },
   "options_quota_items": {
      "message": "Items"
   },
   "options_quota_speed_dial": {
      "message": "Speed Dial"
   },
   "options_quota_trashed": {
      "message": "Trashed"
   },
   "options_quota_usage_report": {
      "message": "Usage Report"
   },
   "options_remove_account": {
      "message": "Remove Account"
   },
   "options_restore_message_sent": {
      "message": "Restore instructions has been sent to your email"
   },
   "options_sd_backup_first_line": {
      "message": "Just to make sure that your dials won't be lost, we automatically made the backup of all your dials."
   },
   "options_sd_backup_make": {
      "message": "Backup Dials"
   },
   "options_sd_backup_restore": {
      "message": "Restore Dials"
   },
   "options_sd_backup_second_line": {
      "message": "All your dials saved on your computer."
   },
   "options_sd_in_browser": {
      "message": "In Browser:"
   },
   "options_sync_account_online": {
      "message": "Your sync account %email% is "
   },
   "options_sync_bookmarks_quota": {
      "message": "There're no limits on syncing bookmarks but you can use Merge / Download Bookmarks features 4 times a day due Google Api Restrictions."
   },
   "options_tab_account": {
      "message": "Account"
   },
   "options_tab_backup_history": {
      "message": "Backups"
   },
   "options_tab_sync": {
      "message": "SpeedDial"
   },
   "options_tab_sync_bookmarks": {
      "message": "Bookmarks"
   },
   "options_title": {
      "message": "EverSync Options"
   },
   "options_unlimsync_old_chrome_more_info": {
      "message": "More info..."
   },
   "options_unlimsync_old_chrome_please_open": {
      "message": "\u003Cstrong>Please, open\u003C/strong> "
   },
   "options_unlimsync_old_chrome_text_1": {
      "message": "We did improvements and now you don't need to restart browser when sync a lot of bookmarks. In Order to Sync bookmarks you need to have \u003Cstrong>Chrome Browser 38+\u003C/strong> or later. Your current Chrome version doesn't support sync of large amount of bookmarks(\u003Cstrong>more than 500\u003C/strong>)."
   },
   "options_unlimsync_old_chrome_text_2": {
      "message": "\u003Cstrong>in your tab and update Chrome. Thanks.\u003C/strong>"
   },
   "options_upload": {
      "message": "Upload"
   },
   "options_why_use_web_ui": {
      "message": "Why do I need Web Access?"
   },
   "options_why_use_webui": {
      "message": "\u003Cdiv class=\"whyUseWebUi\">\u003Cp>Why would I need the interface of \u003Ca target=\"_blank\" href=\"http://everhelper.me\" >everhelper.me\u003C/a> at all if all of its\u003Cbr/>features are available in the add-ons?\u003C/p>\u003Cp>Of course, you can enjoy the functionality of \u003Ca target=\"_blank\" href=\"http://everhelper.me\" >everhelper.me\u003C/a> without\u003Cbr/>accessing the Web interface though it does have several specific\u003Cbr/>features that may be of great use to you. For instance, it allows:\u003C/p>\u003Cul>\u003Cli>Creating additional backups\u003C/li>\u003Cli>Creating private bookmarks and dials\u003C/li>\u003Cli>Importing bookmarks from HTML files\u003C/li>\u003Cli>Copying bookmarks into and from FVD Speed Dial\u003C/li>\u003C/ul>\u003Cp>Plus, it gives you the access to your bookmarks from absolutely any\u003Cbr/>browser, even one without our apps installed!\u003C/p>\u003C/div>"
   },
   "popup_abort": {
      "message": "Abort"
   },
   "popup_alert_sync_already_active": {
      "message": "Synchronization is in progress on another device, please wait... Database will be automatically unlocked in 5 min."
   },
   "popup_alert_sync_already_active_title": {
      "message": "Error"
   },
   "popup_apply_updates_confirm_text": {
      "message": "Server has updates( %date% ). Do you want to apply?"
   },
   "popup_auto_title": {
      "message": "Auto"
   },
   "popup_bookmarks_desc": {
      "message": "Sync Bookmarks"
   },
   "popup_bookmarks_passive_desc": {
      "message": "Sync Bookmarks is not active"
   },
   "popup_cancel_sync": {
      "message": "Cancel Sync"
   },
   "popup_conflict_abort_sync": {
      "message": "Abort Sync"
   },
   "popup_conflict_fvd_sync_cant_tell": {
      "message": "EverSync can't tell which of these versions of this"
   },
   "popup_conflict_local_version": {
      "message": "Local version"
   },
   "popup_conflict_retain_local_version": {
      "message": "Retain local version"
   },
   "popup_conflict_retain_server_version": {
      "message": "Retain server version"
   },
   "popup_conflict_select_version": {
      "message": "Please select the version that should be retained"
   },
   "popup_conflict_server_version": {
      "message": "Server version"
   },
   "popup_conflict_should_be_retained": {
      "message": "should be retained."
   },
   "popup_conflict_title": {
      "message": "Content version conflict"
   },
   "popup_conflict_use_this_choice": {
      "message": "Use this choise for all conflicts of this sync"
   },
   "popup_get_pro_button": {
      "message": "Get Pro!"
   },
   "popup_goto_everhelper": {
      "message": "EverHelper Account"
   },
   "popup_initialization": {
      "message": "Initializing"
   },
   "popup_login": {
      "message": "Login"
   },
   "popup_logout": {
      "message": "Log Out"
   },
   "popup_must_login_message": {
      "message": "To Synchronize your data you have to login in your EverSync account"
   },
   "popup_ok": {
      "message": "OK"
   },
   "popup_options": {
      "message": "Options"
   },
   "popup_please_resolve_conflict": {
      "message": "Please resolve conflict"
   },
   "popup_rate_us": {
      "message": "Rate Us"
   },
   "popup_register": {
      "message": "Register"
   },
   "popup_report_bug": {
      "message": "Report Bug"
   },
   "popup_resolve_conflict": {
      "message": "Resolve"
   },
   "popup_sd_not_installed_explore": {
      "message": "Explore"
   },
   "popup_speeddial_sync_action_download_changes": {
      "message": "Syncing with server... Please be patient!"
   },
   "popup_speeddial_sync_action_special_actions": {
      "message": "Special sync (%progress%)... Please be patient!"
   },
   "popup_speeddial_sync_action_upload_changes": {
      "message": "Uploading changes... Please be patient!"
   },
   "popup_speeddial_sync_groups_and_dials": {
      "message": "FVD Speed Dial: Sync Groups And Dials"
   },
   "popup_speeddial_sync_it_can_take": {
      "message": "It can take up to 60 seconds."
   },
   "popup_speeddial_sync_not_active": {
      "message": "To Sync you must install FVD Speed Dial"
   },
   "popup_sync": {
      "message": "Start Synchronization"
   },
   "popup_sync_in_progress": {
      "message": "Syncing in progress. Please wait..."
   },
   "popup_syncing": {
      "message": "Syncing"
   },
   "popup_undefined_group": {
      "message": "Undefined group"
   },
   "popup_warning_unsorted": {
      "message": "Important, if you sync bookmarks between FireFox and Chrome!\u003Cbr>FireFox folder \u003Cstrong>&quot;Other Bookmarks&quot;\u003C/strong> won't be synced by Chrome browser, but it will be synced by EverSync to FireFox."
   },
   "popup_warning_unsorted_link": {
      "message": "Read More &gt;&gt;"
   }
}
