{
   "1001360787461904844": {
      "message": "「$TARGET$」のその他のオプション",
      "placeholders": {
         "TARGET": {
            "content": "$1"
         }
      }
   },
   "1008774365351112026": {
      "message": "「$REL_NO_FOLLOW$」属性を追加する（$LINK_START$詳細$LINK_END$）",
      "placeholders": {
         "LINK_END": {
            "content": "$1"
         },
         "LINK_START": {
            "content": "$2"
         },
         "REL_NO_FOLLOW": {
            "content": "$3"
         }
      }
   },
   "1013295359134966511": {
      "message": "標準"
   },
   "1026450251988549367": {
      "message": "最近変更したアイテム"
   },
   "1035476379650787996": {
      "message": "リクエストを処理することができません"
   },
   "1035734413919296": {
      "message": "音楽を追加"
   },
   "1044946868924904798": {
      "message": "接続していません"
   },
   "1046700819368184074": {
      "message": "ダウンロード フォルダ"
   },
   "1047094450854611275": {
      "message": "ミニプレーヤーを使用すると、ブラウザ ウィンドウを離れて曲を再生したり、曲を高く評価したり、「I'm Feeling Lucky」ラジオ ステーションを聴いたりできます。"
   },
   "1052242579040192537": {
      "message": "カナダ先住民文字"
   },
   "10524368647766690": {
      "message": "番号"
   },
   "1061598772078003048": {
      "message": "ルビ終止指定文字"
   },
   "1065557748112539713": {
      "message": "音楽のダウンロードを一時停止しています"
   },
   "108743912460085743": {
      "message": "Left-to-right Override"
   },
   "1091846413708174942": {
      "message": "マイ ポッドキャスト"
   },
   "1099947980448260765": {
      "message": "[トップチャート] に移動します"
   },
   "1105024870503318889": {
      "message": "音楽を追加"
   },
   "113306301971655652": {
      "message": "左から右のマーク"
   },
   "1144407473317535723": {
      "message": "定期購入"
   },
   "1144614654642966892": {
      "message": "次回請求日の前に解約します。それまではお楽しみいただけます。"
   },
   "1145877575671354635": {
      "message": "ライブラリを更新"
   },
   "1147358182484006761": {
      "message": "ストア"
   },
   "1150285978886683433": {
      "message": "リピート OFF、全曲リピート、1 曲リピートを切り替えます"
   },
   "1152313922995021532": {
      "message": "64 ビット .rpm（Fedora/openSUSE）"
   },
   "1165829070116929673": {
      "message": "{NUM_TRANSFERRED_TRACKS_1,plural, =1{ 1 曲を追加しました}other{ {NUM_TRANSFERRED_TRACKS_2} 曲を追加しました}}"
   },
   "1171793945142161924": {
      "message": "{COUNT,plural, =0{}=1{{TEXT} 分}other{{TEXT} 分}}"
   },
   "1181311234668957012": {
      "message": "オートプレイリスト"
   },
   "1182611188595867762": {
      "message": "2. インストーラが開いたら、その指示どおりに Music Manager を設定します。"
   },
   "1189933439482480473": {
      "message": "曲の上限に到達しました。"
   },
   "1218504303426384579": {
      "message": "アルバム"
   },
   "1220984280262077870": {
      "message": "購入した音楽"
   },
   "1227051853106034748": {
      "message": "プレビュー時はスライダーを動かすことはできません。"
   },
   "1229167447861422460": {
      "message": "2 台の端末で同時に音楽を再生することはできません"
   },
   "1233161892151828431": {
      "message": "斜体にします"
   },
   "1238358838717941284": {
      "message": "サンプル"
   },
   "1248987958177161816": {
      "message": "HTML ソースを編集します"
   },
   "1249846405947826980": {
      "message": "前のエピソード"
   },
   "1257583932123379891": {
      "message": "ポッドキャストを表示:"
   },
   "1275783181441501836": {
      "message": "段落区切り文字"
   },
   "128003684539571261": {
      "message": "通貨"
   },
   "1280952737124946671": {
      "message": "{NUM_PODCASTS,plural, =0{0 件のポッドキャスト}=1{1 件のポッドキャスト}other{# 件のポッドキャスト}}"
   },
   "1288885129710503327": {
      "message": "3. アプリケーション フォルダを開き、Music Manager をダブルクリックします。"
   },
   "1291021741111868686": {
      "message": "64 ビット .deb（Debian/Ubuntu）"
   },
   "1291623607736913474": {
      "message": "ステーションをブラウジング:"
   },
   "1294292881529533213": {
      "message": "Google Play Music のロゴ"
   },
   "129672981680457789": {
      "message": "ハヌノオ文字"
   },
   "129923171865835166": {
      "message": "「I'm Feeling Lucky」ラジオ"
   },
   "1303647473723340887": {
      "message": "現在の選択アイテムの 1 つ上にあるアイテムを選択します"
   },
   "131636849522359023": {
      "message": "$XXX$ に基づき提供",
      "placeholders": {
         "XXX": {
            "content": "$1"
         }
      }
   },
   "1327813348141810372": {
      "message": "バムン文字"
   },
   "1341185708905265042": {
      "message": "ディスク番号"
   },
   "1345511732360402048": {
      "message": "突厥文字"
   },
   "1348774649041038169": {
      "message": "ナビゲーション"
   },
   "1370021378292702047": {
      "message": "「$SONG_TITLE$」の一致の誤りを報告しました。",
      "placeholders": {
         "SONG_TITLE": {
            "content": "$1"
         }
      }
   },
   "1372720741032795625": {
      "message": "シャッフルのオン/オフを切り替えます"
   },
   "1372788343021542418": {
      "message": "ミニプレーヤーを使用するには、ウェブで Google Play Music にログインしてください。"
   },
   "1382005717519484629": {
      "message": "空白文字"
   },
   "1393837337557373364": {
      "message": "アルバム"
   },
   "1404225614691686373": {
      "message": "Google Play で$START_BREAK$無制限に音楽を再生",
      "placeholders": {
         "START_BREAK": {
            "content": "$1"
         }
      }
   },
   "1411257156168420592": {
      "message": "$ITEM_NAME$（クリックすると選択できます）。",
      "placeholders": {
         "ITEM_NAME": {
            "content": "$1"
         }
      }
   },
   "142620397708685601": {
      "message": "色を入力（例: pink、#F00、#D015FF または rgb(100, 50, 25) の形式）"
   },
   "1429336442713571177": {
      "message": "曲リスト"
   },
   "1430061825590893722": {
      "message": "このリンクを新しいウィンドウで開く"
   },
   "1433391846042476830": {
      "message": "昨日"
   },
   "1435809990540516997": {
      "message": "音楽を追加しています"
   },
   "1444145448465775598": {
      "message": "キャンセル"
   },
   "1453708590388513852": {
      "message": "技術"
   },
   "1458235947634220389": {
      "message": "何でもできる無料ラジオ。自分の音楽コレクションを $FORMATTED_LOCKER_SIZE$ 曲までアップロードできます。定期購入すると、オンデマンドで 3,500 万曲にアクセスしてオフラインで再生できます。",
      "placeholders": {
         "FORMATTED_LOCKER_SIZE": {
            "content": "$1"
         }
      }
   },
   "1464072562214937907": {
      "message": "年"
   },
   "147527058386222778": {
      "message": "ストリーミング品質"
   },
   "1483596119706515744": {
      "message": "ブギス文字"
   },
   "1487523984872879956": {
      "message": "全角幅の四角形"
   },
   "1490665788833937521": {
      "message": "ミニプレーヤーをダウンロード"
   },
   "1494946186465201682": {
      "message": "キャンセル"
   },
   "1501458973427096787": {
      "message": "曲をオフラインで再生できます"
   },
   "1504214836895903832": {
      "message": "接続できませんでした"
   },
   "1517865562673472241": {
      "message": "1. インストーラが完了するまで待ちます。"
   },
   "1529406134757733750": {
      "message": "{NUM_FAILURES_1,plural, =1{ 1 曲ダウンロードできませんでした}other{ {NUM_FAILURES_2} 曲ダウンロードできませんでした}}"
   },
   "1561656335740427643": {
      "message": "テルグ語"
   },
   "1573657685592390905": {
      "message": "フォルダを選択..."
   },
   "1575810254412583888": {
      "message": "曲数"
   },
   "1595478688335662057": {
      "message": "Google ユーザー"
   },
   "1598061158801514509": {
      "message": "音楽のダウンロードを再開しています"
   },
   "1607904075839741217": {
      "message": "パソコンから選択"
   },
   "1615800076127848008": {
      "message": "タイ ロ文字"
   },
   "1625229324427014182": {
      "message": "{NUM,plural, =0{# 時間後}=1{# 時間後}other{# 時間後}}"
   },
   "1635932785663944786": {
      "message": "数字"
   },
   "1658346838703079243": {
      "message": "変更"
   },
   "1664100143082435029": {
      "message": "キャンセル"
   },
   "1666765550993208796": {
      "message": "これらの曲は一致に誤りがありますか？"
   },
   "1673135862760647009": {
      "message": ""
   },
   "1676480944844752785": {
      "message": "オートプレイリスト"
   },
   "1686917835491599951": {
      "message": "最近マイ ライブラリに追加したアイテム"
   },
   "1688117822806275177": {
      "message": "ライブラリから削除"
   },
   "1689044830718067443": {
      "message": "インストールは数秒後に自動的に開始されます。$START_LINK$ヘルプ$END_LINK$",
      "placeholders": {
         "END_LINK": {
            "content": "$1"
         },
         "START_LINK": {
            "content": "$2"
         }
      }
   },
   "1700078784075267898": {
      "message": "Google Play Music"
   },
   "1709114386311494800": {
      "message": "リンク"
   },
   "1712333098917352630": {
      "message": "ラジオ"
   },
   "1715373473261069991": {
      "message": "Twitter"
   },
   "1721299725717238391": {
      "message": "あなたは既に定期購入しています。クーポンは、現在、新規ユーザーのみがご利用いただけます。"
   },
   "1722592106949807025": {
      "message": "デバッグ ログを保存"
   },
   "172500938828303105": {
      "message": "バタク語"
   },
   "1726363342938046830": {
      "message": "Google Play Music について"
   },
   "1729815731089690989": {
      "message": "インターネットに接続していることを確認します"
   },
   "174952015183967014": {
      "message": "$TITLE$ - ポッドキャストあり",
      "placeholders": {
         "TITLE": {
            "content": "$1"
         }
      }
   },
   "1751129087972897649": {
      "message": "帝国アラム文字"
   },
   "1765521785433616250": {
      "message": "まもなくダウンロードが開始します。開始しない場合は$START_SPAN$こちらをクリック$END_SPAN$してください。",
      "placeholders": {
         "END_SPAN": {
            "content": "$1"
         },
         "START_SPAN": {
            "content": "$2"
         }
      }
   },
   "1781759902625939771": {
      "message": "不明なアーティスト"
   },
   "1790640569414740156": {
      "message": "ジャンル"
   },
   "1796702769044958723": {
      "message": "32 ビット .deb（Debian/Ubuntu）"
   },
   "1800865039213871505": {
      "message": "リンクに移動: "
   },
   "1803865475179910876": {
      "message": "Chrome 版 Google Play Music（$PLATFORM$）",
      "placeholders": {
         "PLATFORM": {
            "content": "$1"
         }
      }
   },
   "1819368767424033007": {
      "message": "古代文字"
   },
   "1823843876735462104": {
      "message": "プレイリスト"
   },
   "182621168783940405": {
      "message": "右から左へマーク"
   },
   "1831178715211281116": {
      "message": "このプロモーションは一部の Chrome OS デバイスにのみ適用されます。無制限での音楽の視聴をご希望ですか？"
   },
   "1838639948466909028": {
      "message": "このページはお使いのブラウザに対応していません。$START_LINK$サポートされているブラウザ$END_LINK$を使用してください。",
      "placeholders": {
         "END_LINK": {
            "content": "$1"
         },
         "START_LINK": {
            "content": "$2"
         }
      }
   },
   "184252996364058487": {
      "message": "0 分"
   },
   "1850859858333664648": {
      "message": "すべての音楽"
   },
   "1857207760765836958": {
      "message": "$START_SPAN$ラジオで無制限に曲をスキップ$END_SPAN$",
      "placeholders": {
         "END_SPAN": {
            "content": "$1"
         },
         "START_SPAN": {
            "content": "$2"
         }
      }
   },
   "1860075031180562077": {
      "message": "音楽記号 楽句の末尾"
   },
   "1865818889600889051": {
      "message": "アカウントを変更しました。続行するにはページを更新してください。"
   },
   "1869199094024141188": {
      "message": "{NUM_MIXES,plural, =0{0 件のミックス}=1{1 件のミックス}other{# 件のミックス}}"
   },
   "1869588215425319728": {
      "message": "ナビゲーション ドロワーを閉じます。"
   },
   "1872101028863972302": {
      "message": "$NUM_TRANSFERRED_TRACKS$ 曲をダウンロードしました",
      "placeholders": {
         "NUM_TRANSFERRED_TRACKS": {
            "content": "$1"
         }
      }
   },
   "1873654242780262831": {
      "message": "現在の選択アイテムの 1 つ下にあるアイテムを選択します"
   },
   "190045585254551934": {
      "message": "シロティ ナグリ文字"
   },
   "1914372876923825240": {
      "message": "リンク先:"
   },
   "192481666606780833": {
      "message": "音楽を再生できません"
   },
   "193503854366151748": {
      "message": "現在の曲を低く評価します"
   },
   "1945037339176024290": {
      "message": "囲み文字"
   },
   "1947306462789680361": {
      "message": "$NUM$ 分前",
      "placeholders": {
         "NUM": {
            "content": "$1"
         }
      }
   },
   "1958270821553124859": {
      "message": "音楽記号 楽句の先頭"
   },
   "1962559411793600980": {
      "message": "アヴェスター文字"
   },
   "1980398532913758377": {
      "message": "$NUM_COMPUTERS$ 台のパソコン",
      "placeholders": {
         "NUM_COMPUTERS": {
            "content": "$1"
         }
      }
   },
   "1981687300412326534": {
      "message": "ハングル 9 画"
   },
   "1984987229407697795": {
      "message": "ポッドキャスト"
   },
   "1989564869397178334": {
      "message": "見出し"
   },
   "1996585593795647892": {
      "message": "リンクを追加または削除します"
   },
   "2006786763920466492": {
      "message": "削除日"
   },
   "2029980907058777630": {
      "message": "利用規約"
   },
   "2032972931560484213": {
      "message": "作成者: $CREATOR$",
      "placeholders": {
         "CREATOR": {
            "content": "$1"
         }
      }
   },
   "2038339465785978681": {
      "message": "スペースなし"
   },
   "2038618429165152799": {
      "message": "無題"
   },
   "2080060559104348538": {
      "message": "南アジアの文字体系"
   },
   "2085941577249285555": {
      "message": "定期購入"
   },
   "2088175644103984799": {
      "message": "クメール語の固有母音 Aq"
   },
   "2093026227428526289": {
      "message": "このクーポンは、Google Play Music 定期購入サービスを$START_LINK$ご利用いただける$END_LINK$国で一部の新しい Chromebook でのみ適用されます。",
      "placeholders": {
         "END_LINK": {
            "content": "$1"
         },
         "START_LINK": {
            "content": "$2"
         }
      }
   },
   "2094349866819883967": {
      "message": "半角ダッシュ"
   },
   "2101525118384454593": {
      "message": "曲のシャッフルをオフ"
   },
   "2102825898069375693": {
      "message": "メニュー"
   },
   "2107375315384298887": {
      "message": "下付き文字"
   },
   "2109622269343579329": {
      "message": "無効なメール アドレスです"
   },
   "2139100152161431685": {
      "message": "この端末では音楽を一時的に利用できなくなっています。しばらくしてからもう一度お試しください。$START_LINK$ヘルプ$END_LINK$",
      "placeholders": {
         "END_LINK": {
            "content": "$1"
         },
         "START_LINK": {
            "content": "$2"
         }
      }
   },
   "2139683490477275175": {
      "message": "閉じる"
   },
   "2145060893030204211": {
      "message": "詳細情報はありません。しばらくしてからもう一度お試しください。"
   },
   "2149165958319691680": {
      "message": "購入"
   },
   "2149839604112465314": {
      "message": "{NUM_SONGS_1,plural, =0{0 曲}=1{1 曲}other{{NUM_SONGS_2} 曲}}"
   },
   "2152998011161774228": {
      "message": "g を押して h"
   },
   "2158830056128036057": {
      "message": "音楽ファイルを処理しています..."
   },
   "2159130950882492111": {
      "message": "キャンセル"
   },
   "216513153459932308": {
      "message": "分数/関連"
   },
   "2173312720188441245": {
      "message": "コプト文字"
   },
   "2187022653493279712": {
      "message": "g を押して e"
   },
   "2205522058604794595": {
      "message": "アフリカの文字体系"
   },
   "2209153283705342590": {
      "message": "カイティー文字"
   },
   "2214224657661107347": {
      "message": "ギフトを送信"
   },
   "2220879710364134067": {
      "message": "現在選択している曲を編集します"
   },
   "2239551688895104696": {
      "message": "プレイリスト メニューの切り替え"
   },
   "2246437904181111020": {
      "message": "Google Play Music: メディア フォルダの選択"
   },
   "2252825622480483246": {
      "message": "メロエ草書体"
   },
   "2256597604224604671": {
      "message": "「$TITLE$」を一時停止",
      "placeholders": {
         "TITLE": {
            "content": "$1"
         }
      }
   },
   "2270666830264677427": {
      "message": "一度にダウンロードできるのは $MAX_TRACKS_IN_ZIP$ 曲までです。選択する曲を少なくしてもう一度お試しください。",
      "placeholders": {
         "MAX_TRACKS_IN_ZIP": {
            "content": "$1"
         }
      }
   },
   "2277837732287051413": {
      "message": "現在の曲を高く評価します"
   },
   "2280774384387096759": {
      "message": "ここに曲やフォルダをドラッグするとライブラリに音楽を追加できます。"
   },
   "2296431514706414883": {
      "message": "1. [ダウンロード] ウインドウで MusicManager.dmg をダブルクリックします。"
   },
   "229748758179155728": {
      "message": "お住まいの国では Google Play Music をご利用いただけません。"
   },
   "2299183036960756600": {
      "message": "$NUM$ 日後",
      "placeholders": {
         "NUM": {
            "content": "$1"
         }
      }
   },
   "2303154715443443305": {
      "message": "Music Manager をダウンロードしています..."
   },
   "2303727423829841771": {
      "message": "お使いのブラウザは JavaScript がオフになっているようです。Google Play が正しく機能するには JavaScript がオンになっている必要があります。"
   },
   "2309808536212982229": {
      "message": "アクティビティ"
   },
   "2309894433432831059": {
      "message": "全角縦ダッシュの表示形"
   },
   "2311151671924532713": {
      "message": "プレイリストから除外"
   },
   "2312110731653597036": {
      "message": "$PERCENTAGE_COMPLETE$%",
      "placeholders": {
         "PERCENTAGE_COMPLETE": {
            "content": "$1"
         }
      }
   },
   "2321398646644344846": {
      "message": "明日"
   },
   "2329070756809480856": {
      "message": "アルバム: $ALBUM_NAME$",
      "placeholders": {
         "ALBUM_NAME": {
            "content": "$1"
         }
      }
   },
   "2339250039074511222": {
      "message": "このリンクをテストできません。"
   },
   "2339750206850776348": {
      "message": "リュキア文字"
   },
   "2357805327369816634": {
      "message": "定期購入するとすべての音楽を広告なしで楽しめます"
   },
   "2359922567074115383": {
      "message": "アルバムアートを消去"
   },
   "2372448112806402757": {
      "message": "次のエピソード"
   },
   "2376735487384008742": {
      "message": "波ダッシュ"
   },
   "2378357177170124823": {
      "message": "小数"
   },
   "2382000105167193834": {
      "message": "グジャラト語"
   },
   "2383360664777254925": {
      "message": "ナビゲーション メニューを切り替え"
   },
   "2390557292924554291": {
      "message": "ゼロ幅接合子"
   },
   "2407755817901433243": {
      "message": "Google Play Music の定期購入のクーポンコードを利用できます。"
   },
   "2434131766046654438": {
      "message": "線文字 B"
   },
   "2443885011055165607": {
      "message": "ダウンロード パッケージを選択してください:"
   },
   "2447745837421769983": {
      "message": "Chrome 版 Google Play Music をインストールすると、快適なダウンロードをお楽しみいただけます。"
   },
   "2461177781520343478": {
      "message": "不明なトラック"
   },
   "2474664417751811820": {
      "message": "（音声の再生に問題が発生した場合のみ確認してください）再生ログを取得して、お使いのアカウントをデバッグしてもよろしいですか？"
   },
   "247847652023697955": {
      "message": "音楽記号 タイの先頭"
   },
   "2483680006830369490": {
      "message": "g を押して p"
   },
   "249032153569378306": {
      "message": "$NUM$ 時間前",
      "placeholders": {
         "NUM": {
            "content": "$1"
         }
      }
   },
   "2492300395471245755": {
      "message": "アーティスト"
   },
   "250478839881665936": {
      "message": "g を押して s"
   },
   "2512060739274636260": {
      "message": "新タイ ロ文字"
   },
   "2513370824993175045": {
      "message": "$NUM$ 日後",
      "placeholders": {
         "NUM": {
            "content": "$1"
         }
      }
   },
   "2515246266111059023": {
      "message": "音楽記号 連桁の末尾"
   },
   "2529924385478060648": {
      "message": "ブヒッド文字"
   },
   "2530473232691534250": {
      "message": "メール アドレス"
   },
   "2537475974842549685": {
      "message": "広告を閉じる"
   },
   "2538866057253567409": {
      "message": "デセレット文字"
   },
   "2540334409214949805": {
      "message": "Chrome の特典があるかどうかを確認するには$START_LINK$ログイン$END_LINK$してください。",
      "placeholders": {
         "END_LINK": {
            "content": "$1"
         },
         "START_LINK": {
            "content": "$2"
         }
      }
   },
   "2544569632476723854": {
      "message": "利用規約"
   },
   "2550362371114851075": {
      "message": "標準"
   },
   "2558836909854550547": {
      "message": "標準"
   },
   "2565011230196288502": {
      "message": "$NUM$ 分後",
      "placeholders": {
         "NUM": {
            "content": "$1"
         }
      }
   },
   "2567679469483426925": {
      "message": "現在このサービスはご利用いただけません。"
   },
   "2597193119810674616": {
      "message": "Google Play Music を定期購入すると、$OFFER_LENGTH_DAYS$ 日間無料でお試しいただけます。",
      "placeholders": {
         "OFFER_LENGTH_DAYS": {
            "content": "$1"
         }
      }
   },
   "259918799497504180": {
      "message": "おすすめ: $FIRST$/$SECOND$",
      "placeholders": {
         "FIRST": {
            "content": "$1"
         },
         "SECOND": {
            "content": "$2"
         }
      }
   },
   "2605658322936929408": {
      "message": "ポッドキャスト"
   },
   "2610851846609508423": {
      "message": "ASCII ベース"
   },
   "2626751888211361777": {
      "message": "人気曲をもっと見る"
   },
   "2634703826856398600": {
      "message": "（$NUM_NEW_SONGS$ 曲の新しい曲）",
      "placeholders": {
         "NUM_NEW_SONGS": {
            "content": "$1"
         }
      }
   },
   "2635933238308036768": {
      "message": "Music Manager は Windows、Mac、Linux でのみ利用できます。"
   },
   "2655732800763953732": {
      "message": "「$TITLE$」のインスタント ミックス",
      "placeholders": {
         "TITLE": {
            "content": "$1"
         }
      }
   },
   "2662644497259948010": {
      "message": "コメント"
   },
   "2665785172586453916": {
      "message": "現在のオーディオ広告に関連する広告画像"
   },
   "2671314447505154224": {
      "message": "トップチャート"
   },
   "2673412443855817873": {
      "message": "低く評価"
   },
   "2697517010706562809": {
      "message": "3,500 万曲以上の楽曲に加えて、ラジオに無制限にアクセスできます。"
   },
   "2707074873770010705": {
      "message": "お使いの端末はこのプロモーションの対象外ですが、Google Play Music をお試しいただくと無制限で音楽を聴くことができます。30 日間無料です。"
   },
   "2714752802779336020": {
      "message": "Google Play Music"
   },
   "2721786517672194900": {
      "message": "$START_SPAN$Chrome 版 Google Play Music$END_SPAN$ を使用してダウンロードする場合は、この制限はありません。",
      "placeholders": {
         "END_SPAN": {
            "content": "$1"
         },
         "START_SPAN": {
            "content": "$2"
         }
      }
   },
   "272553825640256879": {
      "message": "全角幅のハイフンマイナス"
   },
   "2728721019095728485": {
      "message": "高"
   },
   "2731202671625726225": {
      "message": "ファミリー設定を管理します。"
   },
   "2732888649509914313": {
      "message": "モンゴル語"
   },
   "2746055492028991938": {
      "message": "注音字母"
   },
   "2777498733015254880": {
      "message": "ヘルプとフィードバック"
   },
   "2787148143326073325": {
      "message": "サウンド検索"
   },
   "2801094315807039135": {
      "message": "タイ ヴィエト文字"
   },
   "280973959199634338": {
      "message": "YouTube 動画を表示"
   },
   "2809945145618753350": {
      "message": "1/4 スペース"
   },
   "2811509810457668932": {
      "message": "音声記号（X-IPA）"
   },
   "2826705908408853328": {
      "message": "設定を完了するには、Google Play に移動する必要があります。完了すると、Play Music に戻ります。"
   },
   "2834324594183341424": {
      "message": "既にお持ちの音楽コレクションを Google Play に追加しましょう"
   },
   "2840006222747077107": {
      "message": "マイ ライブラリに何も登録されていません"
   },
   "2856670286248433202": {
      "message": "広告"
   },
   "2857356182021649243": {
      "message": "曲に移動"
   },
   "287042357925885261": {
      "message": "{NUM,plural, =0{# 分前}=1{# 分前}other{# 分前}}"
   },
   "2881621988818346391": {
      "message": "はい"
   },
   "2881776379326317082": {
      "message": "常にこの場所を使用"
   },
   "2896640427519622010": {
      "message": "クイック ナビゲーション リンク"
   },
   "2896688457548770791": {
      "message": "引用符を入力します"
   },
   "29046698705387751": {
      "message": "{NUM_STATIONS,plural, =0{ステーションなし}=1{ステーション 1 件}other{ステーション # 件}}"
   },
   "2910989560121976550": {
      "message": "このリンクをテスト"
   },
   "2918448970074432239": {
      "message": "HTML を編集"
   },
   "2924201210722864904": {
      "message": "購入"
   },
   "2933981780439742153": {
      "message": "ミニプレーヤーを表示"
   },
   "2941843189430218247": {
      "message": "Shift+q"
   },
   "29485262661698811": {
      "message": "アラビア語の分節の末尾"
   },
   "2954874827338778826": {
      "message": "ウェブアドレス"
   },
   "2968801718595938980": {
      "message": "ハングル語"
   },
   "2972470287059252937": {
      "message": "幅の狭い改行しないスペース"
   },
   "2973169743818593793": {
      "message": "ハングル 5 画"
   },
   "29734255682325103": {
      "message": "右揃えにします"
   },
   "2980847012388128321": {
      "message": "ゼロ幅のスペース"
   },
   "2980960654248329234": {
      "message": "非常に狭いスペース"
   },
   "2982463607788408741": {
      "message": "Google アカウントからログアウトしています。更新して再度ログインしてください。"
   },
   "2983216790003568156": {
      "message": "安全な接続を確立できませんでした"
   },
   "3010015422095710725": {
      "message": "購入した音楽と Google Play Music 定期購入で追加した音楽（$TOTAL_SONGS$）を含むライブラリ全体を削除する",
      "placeholders": {
         "TOTAL_SONGS": {
            "content": "$1"
         }
      }
   },
   "302056167930397366": {
      "message": "特典を利用"
   },
   "3054851848337350805": {
      "message": "上付き文字にします"
   },
   "305815942371229357": {
      "message": "候補なし"
   },
   "3066644656941512863": {
      "message": "音楽の削除中に問題が発生しました。"
   },
   "3067310196368927236": {
      "message": "ヘブライ語の句読点 Maqaf"
   },
   "3087558965817851793": {
      "message": "{COUNT,plural, =0{}=1{{TEXT} 時間}other{{TEXT} 時間}}"
   },
   "309901418176428732": {
      "message": "ポッドキャスト"
   },
   "3099596419835786769": {
      "message": "中程度の幅の数学用スペース"
   },
   "3099741642167775297": {
      "message": "ダウンロード"
   },
   "310152014457055522": {
      "message": "定期購入してすべての曲やアルバムを楽しもう"
   },
   "311252408333124913": {
      "message": "更新設定"
   },
   "3117706868107348105": {
      "message": "または、このリンクをコピーして貼り付ける:"
   },
   "3120374312076174169": {
      "message": "{NUM_EPISODES,plural, =0{0 件のエピソード}=1{1 件のエピソード}other{# 件のエピソード}}"
   },
   "3125342991297920614": {
      "message": "このアルバムを開けませんでした。もう一度お試しください。"
   },
   "3138864086144358473": {
      "message": "ハングル 11～17 画"
   },
   "314582171813087287": {
      "message": "改行しないハイフン"
   },
   "3150614832204809552": {
      "message": "ポッドキャスト: $SERIES_NAME$",
      "placeholders": {
         "SERIES_NAME": {
            "content": "$1"
         }
      }
   },
   "315237578086020945": {
      "message": "アーティストに移動"
   },
   "31530890844887887": {
      "message": "トラックの進行状況"
   },
   "3154951825194528737": {
      "message": "音楽のダウンロードをキャンセルしています"
   },
   "3158174113533341614": {
      "message": "$START_BOLD$ボックスに何を入力すればいいかわからない場合$END_BOLD$、まずリンク先にするウェブページを探します（$SEARCH_ENGINE_LINK$検索エンジン$END_LINK$を使用すると便利です）。次に、ブラウザのアドレスバーからウェブアドレスをコピーして、上のボックスに貼り付けます。",
      "placeholders": {
         "END_BOLD": {
            "content": "$1"
         },
         "END_LINK": {
            "content": "$2"
         },
         "SEARCH_ENGINE_LINK": {
            "content": "$3"
         },
         "START_BOLD": {
            "content": "$4"
         }
      }
   },
   "3163044740176820503": {
      "message": "使ってみる"
   },
   "3164162886883870754": {
      "message": "{NUM_SONGS_TO_DELETE,plural, =1{選択した曲を削除してもよろしいですか？}other{選択した曲を削除してもよろしいですか？}}"
   },
   "3167418181223330667": {
      "message": "修飾子"
   },
   "3182977091552629211": {
      "message": "文字名を確認するには、各セルの上にマウスを置いてください。"
   },
   "3185279424082070029": {
      "message": "この曲が保存されているパソコンが、Music Manager がインストールされているパソコンであること、またインターネットに接続されていることを確認してください。曲は翌日中に再アップロードされます。"
   },
   "3186539049159756808": {
      "message": "{NUM,plural, =0{# 日前}=1{# 日前}other{# 日前}}"
   },
   "3187115322095111816": {
      "message": "{VALUE,plural, =0{0 曲}=1{1 曲}other{# 曲}}"
   },
   "3196641196902208501": {
      "message": "メール アドレスへのリンク"
   },
   "3198123723060667787": {
      "message": "日時"
   },
   "3213972439514824911": {
      "message": "高く評価"
   },
   "3225804441370198247": {
      "message": "すべての曲 - $ARTIST_NAME$",
      "placeholders": {
         "ARTIST_NAME": {
            "content": "$1"
         }
      }
   },
   "3228978445933072234": {
      "message": "易経/太玄経"
   },
   "3234962763403901834": {
      "message": "$NUM$ 分後",
      "placeholders": {
         "NUM": {
            "content": "$1"
         }
      }
   },
   "3236297178990217370": {
      "message": "選択解除"
   },
   "3237206613586329862": {
      "message": "リディア文字"
   },
   "3242312278127054660": {
      "message": "数学用英数字"
   },
   "3244003434432113241": {
      "message": "再生"
   },
   "3245264696956198335": {
      "message": "書式を設定します"
   },
   "3248575677000760820": {
      "message": "{NUM_SONGS,plural, =0{パソコンにダウンロードする曲が選択されていません。}=1{選択した曲をパソコンにダウンロードしてもよろしいですか？}other{選択した曲をパソコンにダウンロードしてもよろしいですか？}}"
   },
   "3277700190370010726": {
      "message": "$START_BOLD$$USER_EMAIL$$END_BOLD$ では Google Play の音楽プロモーションを一時的にご利用いただくことができません。しばらくしてからもう一度お試しください。",
      "placeholders": {
         "END_BOLD": {
            "content": "$1"
         },
         "START_BOLD": {
            "content": "$2"
         },
         "USER_EMAIL": {
            "content": "$3"
         }
      }
   },
   "3299099956700438963": {
      "message": "アメリカの文字体系"
   },
   "3307635842875172003": {
      "message": "[マイミックス] に移動します"
   },
   "3310099093781584673": {
      "message": "g を押して m"
   },
   "3311269073804742952": {
      "message": "今すぐ聴こう"
   },
   "3323193679372503780": {
      "message": "表示しない"
   },
   "3326102734049980036": {
      "message": "残り $DURATION$",
      "placeholders": {
         "DURATION": {
            "content": "$1"
         }
      }
   },
   "3334073701901432746": {
      "message": "プレイリストの検索結果をすべて見る"
   },
   "3335728816495350082": {
      "message": "人気曲 - $ARTIST_NAME$",
      "placeholders": {
         "ARTIST_NAME": {
            "content": "$1"
         }
      }
   },
   "3339989424930162325": {
      "message": "メインのプレーヤーを表示"
   },
   "3377006691156456363": {
      "message": "共有可能なリンク"
   },
   "3381844160250536550": {
      "message": "Chrome にログイン"
   },
   "3389797949812522362": {
      "message": "ヘブライ語"
   },
   "3390725557414108843": {
      "message": "ハングル 4 画"
   },
   "3410315382362912156": {
      "message": "「$START_SPAN$$TITLE$$END_SPAN$」は現在非公開となっています。共有するには公開してください。",
      "placeholders": {
         "END_SPAN": {
            "content": "$1"
         },
         "START_SPAN": {
            "content": "$2"
         },
         "TITLE": {
            "content": "$3"
         }
      }
   },
   "3418677553313974490": {
      "message": "ゴミ箱"
   },
   "3419681791450150574": {
      "message": "進行状況"
   },
   "342127282404571667": {
      "message": "Chrome OS 版 Google Play Music"
   },
   "3430836318571306097": {
      "message": "お支払い方法を変更します -"
   },
   "3431116501598202644": {
      "message": "不明なアルバム"
   },
   "3439291896675389753": {
      "message": "ンコ文字"
   },
   "3444326079109550157": {
      "message": "リンク先の URL を指定してください。"
   },
   "3445096196133856884": {
      "message": "クメール語の固有母音 Aa"
   },
   "3462013384451950074": {
      "message": "$NUM$ 時間後",
      "placeholders": {
         "NUM": {
            "content": "$1"
         }
      }
   },
   "3462291720620021793": {
      "message": "作成者: $OWNER_NAME$",
      "placeholders": {
         "OWNER_NAME": {
            "content": "$1"
         }
      }
   },
   "346461448125635284": {
      "message": "パソコンから Google Play に音楽を追加するだけで、どこにいてもあなたの音楽をすべて聴くことができます。"
   },
   "3479964965156370621": {
      "message": "句読点"
   },
   "3483193414050571677": {
      "message": "低く評価"
   },
   "3483958460407305290": {
      "message": "取り消し線を設定します"
   },
   "3491417595697100862": {
      "message": "$XXX$ が提供",
      "placeholders": {
         "XXX": {
            "content": "$1"
         }
      }
   },
   "3503286865266511120": {
      "message": "プレーヤーの音量を下げます"
   },
   "3519190023725081398": {
      "message": "g を押して b"
   },
   "352192086869301337": {
      "message": "$START_SPAN$$NUM_TRANSFERRED_TRACKS$$END_SPAN$ / $NUM_TOTAL_TRACKS$ 件追加済み",
      "placeholders": {
         "END_SPAN": {
            "content": "$1"
         },
         "NUM_TOTAL_TRACKS": {
            "content": "$2"
         },
         "NUM_TRANSFERRED_TRACKS": {
            "content": "$3"
         },
         "START_SPAN": {
            "content": "$4"
         }
      }
   },
   "3530801739313410091": {
      "message": "Google Play Music クーポンの利用"
   },
   "3545785371861413299": {
      "message": "無料試用を開始"
   },
   "3545929198870894557": {
      "message": "[マイ プレイリスト] に移動します"
   },
   "3547729876847212201": {
      "message": "半角スペース"
   },
   "3565556274692077023": {
      "message": "全角ダッシュ"
   },
   "3565714850919973591": {
      "message": "/"
   },
   "3583962010571084681": {
      "message": "常に高品質"
   },
   "3601632218457952692": {
      "message": "イ語"
   },
   "3605470624800934973": {
      "message": "選択したアルバムを削除してもよろしいですか？"
   },
   "3605957923037994993": {
      "message": "OK"
   },
   "3609204150605625912": {
      "message": "高く評価"
   },
   "3629941396858927174": {
      "message": "他のオプションを非表示"
   },
   "3631504127812962801": {
      "message": "リス文字"
   },
   "3638177113998814964": {
      "message": "「$TARGET$」を読み込んでいます",
      "placeholders": {
         "TARGET": {
            "content": "$1"
         }
      }
   },
   "3643866539136239218": {
      "message": "検索をクリア"
   },
   "3649938620817393740": {
      "message": "小"
   },
   "3650710698506236041": {
      "message": "16 進数の色"
   },
   "3688803517283872334": {
      "message": "半角ハングルの充てん文字"
   },
   "3693467228074689327": {
      "message": "続行"
   },
   "3701910180379922299": {
      "message": "シャラダ文字"
   },
   "370216116393129031": {
      "message": "キューを開く"
   },
   "3748613043647922063": {
      "message": "不可視の区切り文字"
   },
   "3748893353086104812": {
      "message": "ローカル キャッシュを削除して、すべての曲とプレイリストの情報を更新します。"
   },
   "3762887990641668199": {
      "message": "アルメニア語"
   },
   "3768927257183755959": {
      "message": "保存"
   },
   "3770594827970207417": {
      "message": "準見出し"
   },
   "3772706138160001780": {
      "message": "横棒"
   },
   "3774172828626803355": {
      "message": "チェロキー語"
   },
   "3782346097595894324": {
      "message": "サーバーに接続できませんでした。しばらくしてからもう一度お試しください。"
   },
   "3784429870217408370": {
      "message": "ブラーフミー文字"
   },
   "3789779144889291801": {
      "message": "購入した音楽や Google Play にアップロードした音楽を簡単にダウンロードできます。"
   },
   "3795262960327716692": {
      "message": "曲を追加するには、サイドバーのプレイリスト名まで曲をドラッグします"
   },
   "3801288115809478084": {
      "message": "OK"
   },
   "3807050606425965472": {
      "message": "次のウィンドウが閉じられます。\n"
   },
   "3832446507144709355": {
      "message": "グラゴル文字"
   },
   "3839679337223320857": {
      "message": "$EMAIL$ としてログイン済み",
      "placeholders": {
         "EMAIL": {
            "content": "$1"
         }
      }
   },
   "3847468592740504132": {
      "message": "$ITEM_NAME$のラジオ",
      "placeholders": {
         "ITEM_NAME": {
            "content": "$1"
         }
      }
   },
   "3849149261610050417": {
      "message": "Google Play Music にアクセス"
   },
   "3861583677596279097": {
      "message": "翌営業日以内にエンジニアによるレポートへの対応を希望する"
   },
   "3865248559890962003": {
      "message": "おすすめ: $SUGGESTION$",
      "placeholders": {
         "SUGGESTION": {
            "content": "$1"
         }
      }
   },
   "3866082057646051822": {
      "message": "Google Play Music クーポンを利用しよう"
   },
   "3867367359959377145": {
      "message": "エラー: 「$COLOR$」は有効な色ではありません。",
      "placeholders": {
         "COLOR": {
            "content": "$1"
         }
      }
   },
   "3868119883080041455": {
      "message": "$TITLE$のラジオ",
      "placeholders": {
         "TITLE": {
            "content": "$1"
         }
      }
   },
   "3872632959071287956": {
      "message": "Chrome アプリを使用するには、ウェブで Google Play Music にログインする必要があります。"
   },
   "3873111853443561979": {
      "message": "下線を設定します"
   },
   "3885497195825665706": {
      "message": "次へ"
   },
   "3890078112831612818": {
      "message": "これらの曲が保存されているパソコンが、Music Manager がインストールされているパソコンであること、またインターネットに接続されていることを確認してください。曲は翌日中に再アップロードされます。"
   },
   "3904027274600624417": {
      "message": "誰でも検索して聴くことができます。共有する場合に最適です。"
   },
   "3905289916217023036": {
      "message": "購入した音楽やアップロードした音楽をすべて完全に削除します。"
   },
   "3905371920037624514": {
      "message": "非一般"
   },
   "392008683752499246": {
      "message": "コレクションから Google Play に最大 $FORMATTED_LOCKER_SIZE$ 曲を無料で追加できます",
      "placeholders": {
         "FORMATTED_LOCKER_SIZE": {
            "content": "$1"
         }
      }
   },
   "3936240281193464170": {
      "message": "更新"
   },
   "3941019069704400974": {
      "message": "カスタマイズされたおすすめの表示に使用する履歴を完全に削除してもよろしいですか？これにより、各トラックの評価や再生数が削除されることはありません。"
   },
   "3949911572988594237": {
      "message": "プレイリストの作成"
   },
   "3973260061047030021": {
      "message": "音楽を再生または一時停止します"
   },
   "3973931101896534797": {
      "message": "日付"
   },
   "3975141127799341224": {
      "message": "ウェブ上の別の場所にあるページまたはファイルにリンクする"
   },
   "3981724709755713539": {
      "message": "最近のプレイリスト"
   },
   "3982112843644394207": {
      "message": "2. ブラウザのダウンロード フォルダで musicmanagerinstaller.exe をダブルクリックして開きます。"
   },
   "3988935995558346502": {
      "message": "キリル文字"
   },
   "3993484408454658640": {
      "message": "保護者による使用制限"
   },
   "3996699777412450193": {
      "message": "矢印"
   },
   "4018574576796390012": {
      "message": "プレイリスト「$PLAYLIST_NAME$」を$START_SPAN$完全に削除$END_SPAN$してもよろしいですか？",
      "placeholders": {
         "END_SPAN": {
            "content": "$1"
         },
         "PLAYLIST_NAME": {
            "content": "$2"
         },
         "START_SPAN": {
            "content": "$3"
         }
      }
   },
   "4021376741882293501": {
      "message": "Linux"
   },
   "4034257783857644883": {
      "message": "ハングル 6 画"
   },
   "4044663630621281686": {
      "message": "アラビア語記号 Safha"
   },
   "4052021127566304266": {
      "message": "編集"
   },
   "405696346909038516": {
      "message": "ポッドキャストの検索結果をすべて見る"
   },
   "4061274470931156807": {
      "message": "オルチキ語"
   },
   "4063027937991598166": {
      "message": "現在の選択アイテムを削除します"
   },
   "4071581399160046214": {
      "message": "ホーム"
   },
   "4075286221500750156": {
      "message": "バージョン: $VERSION$ $BUILD_MODE$",
      "placeholders": {
         "BUILD_MODE": {
            "content": "$1"
         },
         "VERSION": {
            "content": "$2"
         }
      }
   },
   "4082846773463542695": {
      "message": "お使いのパソコンを識別できませんでした。"
   },
   "4086606389696938932": {
      "message": "アカウント"
   },
   "4087074177670472082": {
      "message": "親文字開始指定文字"
   },
   "4091426921184034649": {
      "message": "定期購入をアップグレード"
   },
   "4110926661719376304": {
      "message": "JavaScript を有効にする方法"
   },
   "4117886182866316912": {
      "message": "現在の曲を進めます"
   },
   "4136239927282562599": {
      "message": "「$START_SPAN$$TITLE$$END_SPAN$」に類似した曲を含むラジオを聴くことができます。",
      "placeholders": {
         "END_SPAN": {
            "content": "$1"
         },
         "START_SPAN": {
            "content": "$2"
         },
         "TITLE": {
            "content": "$3"
         }
      }
   },
   "4139665515290249483": {
      "message": "このプレイリストは空です"
   },
   "4141582858389779168": {
      "message": "月額 $OFFER_PRICE$で無制限の音楽にご登録いただくと、数百万もの曲を広告なしですぐにお楽しみいただけます。",
      "placeholders": {
         "OFFER_PRICE": {
            "content": "$1"
         }
      }
   },
   "4158639452472568044": {
      "message": "この曲は一致に誤りがあるとして報告されています。"
   },
   "4170374596716717299": {
      "message": "ひらがな"
   },
   "4170852783933160433": {
      "message": "{SONG_COUNT,plural, =1{選択した曲は、サーバー上のファイルではなく、ユーザーのファイルを使用します。}other{選択した曲は、サーバー上のファイルではなく、ユーザーのファイルを使用します。}}"
   },
   "4171773891797639122": {
      "message": "ワード接合子"
   },
   "4183640380235728062": {
      "message": "リピートは OFF になっています。クリックするとリピートモードを変更できます。"
   },
   "418638005405848526": {
      "message": "別の端末で再生しているようです。音楽の再生を一時停止しました。$XXX$",
      "placeholders": {
         "XXX": {
            "content": "$1"
         }
      }
   },
   "4204603140063905121": {
      "message": "ハングル中声の充てん文字"
   },
   "4207298621447602833": {
      "message": "ベストマッチ"
   },
   "4210934092144627539": {
      "message": "最近再生または追加した曲"
   },
   "4223772395954115656": {
      "message": "$START_SPAN$いつでも数百万もの曲の中から再生$END_SPAN$",
      "placeholders": {
         "END_SPAN": {
            "content": "$1"
         },
         "START_SPAN": {
            "content": "$2"
         }
      }
   },
   "4248732728178924517": {
      "message": "$NUM_COLS$ 列、$NUM_ROWS$ 行",
      "placeholders": {
         "NUM_COLS": {
            "content": "$1"
         },
         "NUM_ROWS": {
            "content": "$2"
         }
      }
   },
   "4250881018175851283": {
      "message": "情報を更新"
   },
   "4260036130369028456": {
      "message": "g を押して g"
   },
   "4263959392548297550": {
      "message": "キャンセル"
   },
   "4267092206833736997": {
      "message": "ラジオステーション"
   },
   "4272173055918340921": {
      "message": "音楽ライブラリを読み込んでいます&hellip;"
   },
   "4275466320467620600": {
      "message": "常に手前に表示する"
   },
   "4285216590250755577": {
      "message": "お使いの端末にこのプロモーションが適用されるかを確認する前に、端末を更新する必要があります。"
   },
   "4307428996576001111": {
      "message": "1 つ前の曲に戻ります"
   },
   "4318639872744852657": {
      "message": "タクリ文字"
   },
   "4323912651038951928": {
      "message": "この操作を行うと、プレイリスト、ラジオ ステーション、評価、再生回数情報も削除されます。"
   },
   "4326462735503400283": {
      "message": "表示するテキスト:"
   },
   "4329609792835264496": {
      "message": "狭いスペース"
   },
   "4330683855002842723": {
      "message": "他のオプションを表示"
   },
   "4333644357236884202": {
      "message": "クメール語"
   },
   "4338950182024656659": {
      "message": "性別と系図"
   },
   "4340616150909089613": {
      "message": "「$SONG_TITLE$」に一致する結果が別の曲になっていますか？",
      "placeholders": {
         "SONG_TITLE": {
            "content": "$1"
         }
      }
   },
   "4357737589458300153": {
      "message": "MPEG Layer-3 オーディオ コーディング技術は Fraunhofer IIS と Thomson 社がライセンスを所有しています。Advanced Audio Coding（AAC）は、Via Licensing 社がライセンス管理しています。Google Play にはサードパーティ製のソフトウェアが含まれており、通知や追加の利用規約が必要となる場合があります。このようなサードパーティ製ソフトウェアの通知や利用規約については、Google の$START_LINK$サードパーティ開示ページ$END_LINK$をご覧ください。",
      "placeholders": {
         "END_LINK": {
            "content": "$1"
         },
         "START_LINK": {
            "content": "$2"
         }
      }
   },
   "4373763311924773906": {
      "message": "$SOURCE_LIST$ から音楽を追加",
      "placeholders": {
         "SOURCE_LIST": {
            "content": "$1"
         }
      }
   },
   "4374547022638899908": {
      "message": "コンテンツ プロバイダが露骨な表現を含むとした音楽をブロック。"
   },
   "437655423845564400": {
      "message": "曲の上限に達しました。アップロードできるのは最大 $TRACK_LIMIT$ 曲です。",
      "placeholders": {
         "TRACK_LIMIT": {
            "content": "$1"
         }
      }
   },
   "4380903276097257721": {
      "message": "半角縦ダッシュの表示形"
   },
   "4383725505132456525": {
      "message": "音楽の追加を一時停止しています"
   },
   "4386455913448027147": {
      "message": "$ITEM_NAME$",
      "placeholders": {
         "ITEM_NAME": {
            "content": "$1"
         }
      }
   },
   "4387704382811204091": {
      "message": "自分でプレイリストを作成できます"
   },
   "4396890764725725469": {
      "message": "保存"
   },
   "4405073953395157822": {
      "message": "CJK 字画"
   },
   "4417144592785193889": {
      "message": "その他の東アジアの文字体系"
   },
   "4432809939941276493": {
      "message": "現在、Google Play Music は一部の国と特定のタイプのアカウントでのみご利用いただけます。"
   },
   "4439965029912183539": {
      "message": "ラテン 1 補助"
   },
   "4440466521156769623": {
      "message": "音楽記号 連桁の先頭"
   },
   "4448959744786615285": {
      "message": "{COUNT_1,plural, =0{0 曲}=1{1 曲}other{{COUNT_2} 曲}}"
   },
   "445149490695787423": {
      "message": "もう一度ログインする"
   },
   "4451528286100219680": {
      "message": "左から右へ埋め込み"
   },
   "4452427314943113135": {
      "message": "前の曲"
   },
   "4456793125873199230": {
      "message": "「I&#39;m Feeling Lucky」ラジオ"
   },
   "4461486069850736796": {
      "message": "{NUM_SECONDS,plural, =0{0 秒}=1{1 秒}other{# 秒}}"
   },
   "4462494623248108758": {
      "message": "プレイリスト"
   },
   "4476647413225813774": {
      "message": "$OFFER_LENGTH_DAYS$ 日間経過後は、月額 $OFFER_PRICE$で引き続きお楽しみいただけます。",
      "placeholders": {
         "OFFER_LENGTH_DAYS": {
            "content": "$1"
         },
         "OFFER_PRICE": {
            "content": "$2"
         }
      }
   },
   "4478641030934315579": {
      "message": "一般"
   },
   "4479370175321248159": {
      "message": "Mac OS X"
   },
   "4481282928945235645": {
      "message": "一部の曲をもう一度アップロードする必要があります。"
   },
   "4537375385198577563": {
      "message": "詳細"
   },
   "4539806158142214585": {
      "message": "g を押して n"
   },
   "4548136982356342217": {
      "message": "Shift+&#8592;"
   },
   "4554520729383911291": {
      "message": "選択した曲から新しいインスタント ミックスを作成します"
   },
   "4571105317747127957": {
      "message": "分音符号付きのハイフン"
   },
   "4580988005648117665": {
      "message": "検索"
   },
   "4590981840116960737": {
      "message": "書式と空白文字"
   },
   "4601938511613873712": {
      "message": "端末"
   },
   "4607813303298554353": {
      "message": "ターナ文字"
   },
   "46135825491334308": {
      "message": "音楽を削除すると元に戻すことはできません。"
   },
   "4624380622618270977": {
      "message": "新作"
   },
   "4624704164651982020": {
      "message": "Chrome 版 Google Play Music を設定しています..."
   },
   "4629398054050196678": {
      "message": "音楽を次の場所にダウンロード:"
   },
   "4645609569705949286": {
      "message": "自分のみ"
   },
   "4648993989034133051": {
      "message": "現在選択している曲のメニューを表示します"
   },
   "4658362967039953209": {
      "message": "音楽をアップロード"
   },
   "4662613464573260354": {
      "message": "おすすめ"
   },
   "466976558518570343": {
      "message": "ジャワ語"
   },
   "4675864222674894697": {
      "message": "シャヴィアン文字"
   },
   "4687189636655044066": {
      "message": "Space キー"
   },
   "4688946070631035536": {
      "message": "スペルチェック"
   },
   "470296860672943171": {
      "message": "異体字セレクタ"
   },
   "4706959263210678625": {
      "message": "異体字セレクタ - $SEQNUM$",
      "placeholders": {
         "SEQNUM": {
            "content": "$1"
         }
      }
   },
   "4709553525160465770": {
      "message": "Google Play では、音楽のアップロードを迅速に処理するため、Google のサーバーにあるファイルの中からアップロードされたファイルに一致するものを探します。その過程で、誤って別の曲が見つかることがあります。ここで問題を報告すると、曲が再度アップロードされます。"
   },
   "4718177503702130030": {
      "message": "トラックの現在時間: $CURRENT_TIME$",
      "placeholders": {
         "CURRENT_TIME": {
            "content": "$1"
         }
      }
   },
   "4722420535011430371": {
      "message": "YouTube 動画"
   },
   "4724245563419948725": {
      "message": "新しい音楽をこれらの場所に追加した際は、常に Google Play を最新の状態にする"
   },
   "472845696068673335": {
      "message": "更新されたコンテンツを読み込みました"
   },
   "4742770396342457517": {
      "message": "Google Play Music で音楽を聴く"
   },
   "4743341466695708276": {
      "message": "Android"
   },
   "4750228681419116696": {
      "message": "マラヤーラム語"
   },
   "4769480851867061848": {
      "message": "「$TARGET$」を再生",
      "placeholders": {
         "TARGET": {
            "content": "$1"
         }
      }
   },
   "4775550080689015987": {
      "message": "理由"
   },
   "477988155866276940": {
      "message": "{NUM_GENRES,plural, =0{0 件のジャンル}=1{1 件のジャンル}other{# 件のジャンル}}"
   },
   "4782493710939339680": {
      "message": "Twitter で共有"
   },
   "4815033911915598343": {
      "message": "スペース"
   },
   "4830715100444503860": {
      "message": "カローシュティー文字"
   },
   "4846792506513649213": {
      "message": "ステーション"
   },
   "4862902902120611556": {
      "message": "アーティストの検索結果をすべて見る"
   },
   "4867246087786788222": {
      "message": "アカウントの種類:"
   },
   "4874337908897060929": {
      "message": "音楽の追加を一時停止しました"
   },
   "4875592400807861759": {
      "message": "{NUM_SONGS_TO_DELETE,plural, =1{選択した曲を{START_SPAN_1}完全に削除{END_SPAN}してもよろしいですか？}other{選択した曲を{START_SPAN_2}完全に削除{END_SPAN}してもよろしいですか？}}"
   },
   "4878527640076219954": {
      "message": "タミル語"
   },
   "4886126295094352182": {
      "message": "Chrome 版 Google Play Music"
   },
   "4887472194021728050": {
      "message": "タイ語"
   },
   "4902817035128594900": {
      "message": "説明"
   },
   "4916816672463415688": {
      "message": "Google Play Music をお試しください"
   },
   "4920482241656423227": {
      "message": "テキストの背景色を設定します"
   },
   "4920946997448724158": {
      "message": "作曲者"
   },
   "4921096453319030731": {
      "message": "シリア語省略形マーク"
   },
   "4924253230856131215": {
      "message": "東南アジアの文字体系"
   },
   "4930506384627295710": {
      "message": "設定"
   },
   "4933504665795531092": {
      "message": "Google Play Music の定期購入では、3,500 万曲以上の楽曲に加えて、ラジオに無制限にアクセスできます。"
   },
   "4945228064546795686": {
      "message": "アルバムの検索結果をすべて見る"
   },
   "4962022175989879342": {
      "message": "Explicit"
   },
   "4972659496812307928": {
      "message": "音楽のダウンロードを一時停止しました"
   },
   "4980580439123922024": {
      "message": "アーティスト"
   },
   "4982958189718922051": {
      "message": "Google Play Music ホーム"
   },
   "498913874005297914": {
      "message": "太字にします"
   },
   "499152283823240992": {
      "message": "サマリア文字"
   },
   "4998030835388374541": {
      "message": "アルバムアートを変更"
   },
   "5003850562831597565": {
      "message": "最近定期購入したアイテム"
   },
   "5004312405043027351": {
      "message": "完了"
   },
   "5009878480585609766": {
      "message": "ハングル - その他"
   },
   "5015096128854741514": {
      "message": "交通/地図"
   },
   "5018227417300461385": {
      "message": "小さいハイフンマイナス"
   },
   "5029496897209707807": {
      "message": "Chrome 版 Google Play Music の更新が必要です。更新は自動で行われます。"
   },
   "5030096791460456147": {
      "message": "ドラッグしようとしている画像は、ホスティング元のサイトによってブロックされています。"
   },
   "5032188163864418301": {
      "message": "碑文用パフラヴィー文字"
   },
   "5043933900720743682": {
      "message": "アルバム"
   },
   "5049432650728491454": {
      "message": "最新のリリース、トップチャート、プレイリスト、ジャンルで探せます"
   },
   "506090363255226122": {
      "message": "反転"
   },
   "5067818727161314391": {
      "message": "Google+ で共有"
   },
   "5080822706931608370": {
      "message": "{NUM_ALBUMS,plural, =0{0 枚のアルバム}=1{1 枚のアルバム}other{# 枚のアルバム}}"
   },
   "5085509606319320198": {
      "message": "キューを閉じる"
   },
   "5094769877856014729": {
      "message": "音楽記号 タイの末尾"
   },
   "5105404398573470156": {
      "message": "幾何学模様"
   },
   "5113771261593769985": {
      "message": "チャム語"
   },
   "5115900738857721327": {
      "message": "結合書記素接合子"
   },
   "5119663120731608161": {
      "message": "最新の曲を確認するには、$START_LINK$最近追加した曲$END_LINK$プレイリストを確認してください。",
      "placeholders": {
         "END_LINK": {
            "content": "$1"
         },
         "START_LINK": {
            "content": "$2"
         }
      }
   },
   "5125947296792815314": {
      "message": "{NUM_SKIPS,plural, =1{あと 1 回スキップできます}other{あと # 回スキップできます}}"
   },
   "5128240607770067472": {
      "message": "Google Play Music について..."
   },
   "5141725357376719861": {
      "message": "$START_SPAN$$NUM_TRANSFERRED_TRACKS$$END_SPAN$/$NUM_TOTAL_TRACKS$ 件ダウンロードしました",
      "placeholders": {
         "END_SPAN": {
            "content": "$1"
         },
         "NUM_TOTAL_TRACKS": {
            "content": "$2"
         },
         "NUM_TRANSFERRED_TRACKS": {
            "content": "$3"
         },
         "START_SPAN": {
            "content": "$4"
         }
      }
   },
   "5143432838919500349": {
      "message": "スキャンしています..."
   },
   "5154374028369457456": {
      "message": "ナビゲーション ツールバー"
   },
   "5161411570094992408": {
      "message": "後で行う"
   },
   "5170992049958515620": {
      "message": "ハイフン"
   },
   "5188231675115376764": {
      "message": "[マイ ステーション] に移動します"
   },
   "5189296983337794287": {
      "message": "現時点では、画像ファイルをドラッグ＆ドロップすることはできません。\nご使用のウェブブラウザから画像をドラッグしてください。"
   },
   "5199204386348402183": {
      "message": "オスマニア文字"
   },
   "5219596981664772816": {
      "message": "ハングル 3 画"
   },
   "5232157483592334572": {
      "message": "ティフィナグ文字"
   },
   "5237204164514638395": {
      "message": "ギフトを送信"
   },
   "5256846847077792168": {
      "message": "語句を編集"
   },
   "5274506773583039432": {
      "message": "選択したプレイリストを$START_SPAN$完全に削除$END_SPAN$してもよろしいですか？",
      "placeholders": {
         "END_SPAN": {
            "content": "$1"
         },
         "START_SPAN": {
            "content": "$2"
         }
      }
   },
   "5278374842872340790": {
      "message": "絵文字"
   },
   "5296780212411063886": {
      "message": "ステーションを見る"
   },
   "5302287499843369186": {
      "message": "Google Play Music の設定"
   },
   "531478949469830505": {
      "message": "ソラ ソンペン文字"
   },
   "5316998074277327666": {
      "message": "コンテンツの一部は Gracenote とそのプロバイダの商標 &copy; です。"
   },
   "5324332666649007562": {
      "message": "{NUM_SONGS_TO_EXPUNGE,plural, =1{選択した曲を{START_SPAN_1}完全に削除{END_SPAN}してもよろしいですか？}other{選択した曲を{START_SPAN_2}完全に削除{END_SPAN}してもよろしいですか？}}"
   },
   "5326351540290142036": {
      "message": "前の曲"
   },
   "5348600594194881699": {
      "message": "ゆったりリラックス。Google Play Music は既に定期購入済みです。"
   },
   "5350246280596757721": {
      "message": "関連アーティスト"
   },
   "536459166857647880": {
      "message": "タガログ語"
   },
   "5370332239555585516": {
      "message": "すべての音楽を広告なしで楽しめます"
   },
   "5373550672011878193": {
      "message": "ルーン文字"
   },
   "5379453108698089622": {
      "message": "[今すぐ聴こう] に移動"
   },
   "5393158295657392839": {
      "message": "曲の一致の誤りを報告しました。"
   },
   "5394607018657314633": {
      "message": "行区切り文字"
   },
   "5395035563228151731": {
      "message": "アカウントのステータス:"
   },
   "5402470227536486835": {
      "message": "小さい全角ダッシュ"
   },
   "5404910277282887798": {
      "message": "フェニキア文字"
   },
   "5407092932504462689": {
      "message": "ラジオ ステーションの検索結果をすべて見る"
   },
   "5408241503383428945": {
      "message": "その他のヨーロッパの文字体系"
   },
   "5410695385284979104": {
      "message": "「$TITLE$」のミックス",
      "placeholders": {
         "TITLE": {
            "content": "$1"
         }
      }
   },
   "541213310813871561": {
      "message": "ファミリー設定"
   },
   "5432330868773114140": {
      "message": "ラジオを起動"
   },
   "5444318821310889944": {
      "message": "{COUNT_1,plural, =0{エピソード数: 0}=1{エピソード数: 1}other{エピソード数: {COUNT_2}}}"
   },
   "545173546103184657": {
      "message": "Google アカウント:"
   },
   "5452036681614307719": {
      "message": "不可視の加算記号"
   },
   "5452218284042451605": {
      "message": "クーポンを $START_SPAN$$USER_EMAIL$$END_SPAN$ に適用するには、下にコードを入力してください",
      "placeholders": {
         "END_SPAN": {
            "content": "$1"
         },
         "START_SPAN": {
            "content": "$2"
         },
         "USER_EMAIL": {
            "content": "$3"
         }
      }
   },
   "5464364716831469679": {
      "message": "不明なアルバム"
   },
   "5480320305561124595": {
      "message": "マイライブラリ"
   },
   "548629550059508920": {
      "message": "既に 2 つのアカウントからアップロードしているため、アップロードできません。"
   },
   "5492320356892382782": {
      "message": "完全に削除"
   },
   "5497512316841934820": {
      "message": "「I'm feeling lucky」ミックス"
   },
   "5497627646066282315": {
      "message": "接続しています"
   },
   "5501301484140201550": {
      "message": "「I'm Feeling Lucky」ラジオ"
   },
   "550380163414655031": {
      "message": "次に、好きなジャンルをお知らせください。あなたにぴったりの曲をおすすめします。"
   },
   "5518817744725858296": {
      "message": "付近でライブ開催予定のアーティスト"
   },
   "5529194084754296998": {
      "message": "1/6 スペース"
   },
   "5535160370665610524": {
      "message": "現在の曲を戻します"
   },
   "5578390534357178026": {
      "message": "同じ Google アカウントで Chrome にログインしていることを確認してください。"
   },
   "5584189341216439776": {
      "message": "曲を追加"
   },
   "5584467594910303696": {
      "message": "メロエ記念碑書体"
   },
   "5586233271963962252": {
      "message": "次の曲"
   },
   "5593848105713936399": {
      "message": "キュー"
   },
   "5594762259680838005": {
      "message": "最近購入したアイテム"
   },
   "5605692130698677333": {
      "message": "Google Play Music Manager をインストール済みのパソコンから音楽を追加する場合のヘルプ"
   },
   "560627050344405345": {
      "message": "30 秒早送り"
   },
   "5607000992339442129": {
      "message": "Google Play への音楽コレクションのアップロードが、わずか数分で利用できるようになります。"
   },
   "5612959352951118540": {
      "message": "$NUM$ 時間後",
      "placeholders": {
         "NUM": {
            "content": "$1"
         }
      }
   },
   "5629201590189718876": {
      "message": "形式"
   },
   "5635270894887625192": {
      "message": "$START_UNORDERED_LIST$$START_ITEM$$START_DIV_1$$END_DIV$$START_SPAN$Google Play には最大 $FORMATTED_LOCKER_SIZE$ 曲を無料で保存できます。$END_SPAN$$END_ITEM$$START_ITEM$$START_DIV_2$$END_DIV$$START_SPAN$iTunes、Windows Media Player、フォルダからお気に入りのコレクションを追加できます。$END_SPAN$$END_ITEM$$START_ITEM$$START_DIV_3$$END_DIV$$START_SPAN$ウェブで、またはモバイル端末で、接続や同期の手間をかけずに音楽を楽しむことができます。$END_SPAN$$END_ITEM$$END_UNORDERED_LIST$",
      "placeholders": {
         "END_DIV": {
            "content": "$1"
         },
         "END_ITEM": {
            "content": "$2"
         },
         "END_SPAN": {
            "content": "$3"
         },
         "END_UNORDERED_LIST": {
            "content": "$4"
         },
         "FORMATTED_LOCKER_SIZE": {
            "content": "$5"
         },
         "START_DIV_1": {
            "content": "$6"
         },
         "START_DIV_2": {
            "content": "$7"
         },
         "START_DIV_3": {
            "content": "$8"
         },
         "START_ITEM": {
            "content": "$9"
         },
         "START_SPAN": {
            "content": "$10"
         },
         "START_UNORDERED_LIST": {
            "content": "$11"
         }
      }
   },
   "5653588624985073807": {
      "message": "グルムキー文字"
   },
   "5671499827182863671": {
      "message": "このアカウントからログアウトしました。音楽を聴くには下のボタンをクリックしてください。"
   },
   "5674048882417502526": {
      "message": "Right-to-left Override"
   },
   "5700613377997995103": {
      "message": "数字用ダッシュ"
   },
   "5729733224544981434": {
      "message": "ドラッグ＆ドロップを有効にするには Chrome 版 Google Play Music を追加してください"
   },
   "5755038562791065032": {
      "message": "1/3 スペース"
   },
   "5769804815976568558": {
      "message": "ダウンロード先を選択"
   },
   "5775493454862732930": {
      "message": "アルメニア語ハイフン"
   },
   "5784007894878825338": {
      "message": "改行しないスペース"
   },
   "5827343664961087180": {
      "message": "登録"
   },
   "5832435837238304779": {
      "message": "「$TITLE$」を再生",
      "placeholders": {
         "TITLE": {
            "content": "$1"
         }
      }
   },
   "585739095777961817": {
      "message": "-"
   },
   "5862309805277852777": {
      "message": "タイトル"
   },
   "5863523793538309428": {
      "message": "音楽データを削除します。すべての音楽データが削除されるまでには数時間かかることがあります。"
   },
   "5888141336325862688": {
      "message": "[ステーションを見る] に移動します"
   },
   "5889126665299129466": {
      "message": "ミニプレーヤーを使用するには、Chrome にログインする必要があります。"
   },
   "5889904821719049150": {
      "message": "任意のパソコンと最大 10 台の端末で音楽を再生できます。Music Manager または Chrome 版 Google Play Music を使用して音楽をアップロードまたはダウンロードすると、使用中の端末数として追加されます。"
   },
   "5890243856676178044": {
      "message": "ベンガル語"
   },
   "5891064527381218201": {
      "message": "無料"
   },
   "5914500973755757025": {
      "message": "ラオ語"
   },
   "5918806792833250096": {
      "message": "くさび形文字"
   },
   "5923830678189377717": {
      "message": "現在ご利用いただけないようです"
   },
   "5946473117506990177": {
      "message": "Google Play Music の定期購入をプレゼントできます"
   },
   "5969115558488445506": {
      "message": "小見出し"
   },
   "5971001229987621398": {
      "message": "おすすめの新作"
   },
   "5987565417212088924": {
      "message": "サウンド検索プレイリスト"
   },
   "5990212441459592050": {
      "message": "公開する"
   },
   "599493319699637812": {
      "message": "曲をシャッフル"
   },
   "5999484363963634214": {
      "message": "マンダ文字"
   },
   "6028312506269896318": {
      "message": "次の端末で音楽を再生する許可を取り消してもよろしいですか:"
   },
   "6031749391396582225": {
      "message": "ハングルの充てん文字"
   },
   "60369026765465265": {
      "message": "ステーションを更新"
   },
   "6037216776738907588": {
      "message": "ジャンルに移動"
   },
   "6042091568356544470": {
      "message": "関数適用"
   },
   "6062704261604405084": {
      "message": "Chrome 版 Google Play Music を設定して既にお持ちの音楽コレクションを追加し、スマートフォン、タブレット、パソコンで音楽を楽しみましょう。"
   },
   "6062911693359625717": {
      "message": "ビットレート: $BITRATE$",
      "placeholders": {
         "BITRATE": {
            "content": "$1"
         }
      }
   },
   "6068863249628617875": {
      "message": "今すぐ試す"
   },
   "607779708716020188": {
      "message": "..."
   },
   "6080972150136904755": {
      "message": "プレイリストには現在何も登録されていません"
   },
   "6082171864197428613": {
      "message": "インストール"
   },
   "609463966491943885": {
      "message": "フォルダを選択"
   },
   "6097429778714195840": {
      "message": "[新作] に移動します"
   },
   "6104044107385556653": {
      "message": "クーポンコードは大文字と小文字が区別されます"
   },
   "610635793308893528": {
      "message": "右から左へ埋め込み"
   },
   "6115840172404094036": {
      "message": "次の曲に進みます"
   },
   "6134905866550808378": {
      "message": "すべての曲 - $GENRE_NAME$",
      "placeholders": {
         "GENRE_NAME": {
            "content": "$1"
         }
      }
   },
   "6176916746057281482": {
      "message": "エピソードの詳細を表示"
   },
   "6182267200530067545": {
      "message": "引き続き音楽をお楽しみいただくには、定期購入の設定が必要です。"
   },
   "6202991870072245705": {
      "message": "登録解除"
   },
   "6205568685279927986": {
      "message": "レジャン文字"
   },
   "6211690508928257569": {
      "message": "シリア文字"
   },
   "6214362172197372800": {
      "message": "先へ進む前に Google Play で購入した音楽がパソコンにダウンロードされていることを確認してください。"
   },
   "6227307047241266902": {
      "message": "その他のオプション メニュー"
   },
   "6233107584508657559": {
      "message": "Google に接続できませんでした"
   },
   "6233799104785293347": {
      "message": "アップグレード"
   },
   "6238576599909606924": {
      "message": "URL が無効です"
   },
   "6242354668932209396": {
      "message": "全曲をリピートしています。クリックするとリピートモードを変更できます。"
   },
   "624368563085644372": {
      "message": "不可視の乗算記号"
   },
   "624560585652958729": {
      "message": "許可を取り消す"
   },
   "6254019915482435769": {
      "message": "ディスク"
   },
   "6263911096488435737": {
      "message": "ミックスを更新"
   },
   "6264257099423315684": {
      "message": "リンク先のメール アドレスを指定してください。"
   },
   "6266962164598137510": {
      "message": "低く評価"
   },
   "6295780096198935300": {
      "message": "曲の検索結果をすべて見る"
   },
   "630414199054820482": {
      "message": "句読点用スペース"
   },
   "6321629750851370838": {
      "message": "再生"
   },
   "6334800505555910746": {
      "message": "$XXX_1$ が $XXX_2$ に基づき提供",
      "placeholders": {
         "XXX_1": {
            "content": "$1"
         },
         "XXX_2": {
            "content": "$2"
         }
      }
   },
   "6338543385295715171": {
      "message": "アップロード エラー"
   },
   "6342787164312491730": {
      "message": "天候、風景、星座"
   },
   "6348993545995904615": {
      "message": "シャッフル"
   },
   "6352462755178724841": {
      "message": "書式を削除します"
   },
   "6360340926892934518": {
      "message": "フォルダを追加"
   },
   "6376633306429460166": {
      "message": "サウラーシュトラ語"
   },
   "6385838952512467617": {
      "message": "{NUM,plural, =0{ダウンロードがあと 1 回のみの曲はありません。}=1{「{XXX_1}」はダウンロードがあと 1 回のみです。}=2{「{XXX_1}」と「{XXX_2}」はダウンロードがあと 1 回のみです。}=3{「{XXX_1}」、「{XXX_2}」、「{XXX_3}」はダウンロードがあと 1 回のみです。}=4{「{XXX_1}」、「{XXX_2}」、「{XXX_3}」とその他選択した 1 曲はダウンロードがあと 1 回のみです。}other{「{XXX_1}」、「{XXX_2}」、「{XXX_3}」とその他選択した {XXX_4} 曲はダウンロードがあと 1 回のみです。}}"
   },
   "6390744057286457578": {
      "message": "中央揃えにします"
   },
   "6392918669949841614": {
      "message": "追加日"
   },
   "6397906195939852735": {
      "message": "カンナダ語"
   },
   "6397910887534888858": {
      "message": "テキストの色を設定します"
   },
   "6401620758535187625": {
      "message": "お支払い情報の更新"
   },
   "6426880811380367028": {
      "message": "「$TARGET$」を一時停止",
      "placeholders": {
         "TARGET": {
            "content": "$1"
         }
      }
   },
   "6427041476637425542": {
      "message": "下付き文字にします"
   },
   "6439365426343089851": {
      "message": "全般"
   },
   "6447846965513034625": {
      "message": "物"
   },
   "6453809956732788630": {
      "message": "$START_SPAN$Google のマニアによるプレイリストをご用意$END_SPAN$",
      "placeholders": {
         "END_SPAN": {
            "content": "$1"
         },
         "START_SPAN": {
            "content": "$2"
         }
      }
   },
   "6455550894777387014": {
      "message": "ミャンマー語"
   },
   "6455589326534311330": {
      "message": "$START_SPAN$Music Manager$END_SPAN$ を使用してライブラリ全体をパソコンにダウンロードする場合は、この制限はありません。",
      "placeholders": {
         "END_SPAN": {
            "content": "$1"
         },
         "START_SPAN": {
            "content": "$2"
         }
      }
   },
   "6463864371052292453": {
      "message": "露骨な表現: 子供に不適切なコンテンツが含まれている"
   },
   "6482036697464831271": {
      "message": "曲のアップロードを迅速化するため、Google Play ではユーザーの音楽ファイルと同じファイルがサーバー上にあればそちらを使用します。この組合せの判定には誤りが生じることがあります。問題が発生した場合はこちらから報告してください。指摘のあった曲については、サーバー上のファイルではなく、ユーザーのファイルを使用するよう修正します。"
   },
   "6482815137654580311": {
      "message": "情報を編集"
   },
   "6485379744416240146": {
      "message": "高く評価"
   },
   "6488707262592852720": {
      "message": "2. インストーラ ウインドウで、Music Manager のアイコンをアプリケーション フォルダのアイコンにドラッグします。"
   },
   "6502885021177224543": {
      "message": "Google Play Music: ダウンロード フォルダの選択"
   },
   "6504449653938065974": {
      "message": "おすすめのプレイリスト"
   },
   "6510962485068569110": {
      "message": "元に戻します"
   },
   "6513265996872955028": {
      "message": "ライブラリに追加"
   },
   "6523257069333866790": {
      "message": "音楽ライブラリ"
   },
   "6531109671848395983": {
      "message": "音楽を追加するには、Chrome 版 Google Play Music をインストールしてください。"
   },
   "6531471505721570155": {
      "message": "もっと楽しむ"
   },
   "653219508056341533": {
      "message": "人物と表情"
   },
   "6538565185460307864": {
      "message": "オリヤ語"
   },
   "6555053572817998410": {
      "message": "一時停止"
   },
   "6562996658473327600": {
      "message": "再生中:"
   },
   "6568036879894576496": {
      "message": "次のフォルダの音楽を Google Play Music に追加します"
   },
   "6576943715351613839": {
      "message": "{DOWNLOAD_COUNT_MAX_1,plural, =1{ウェブ上でダウンロードできるのは 1 曲につき 1 回までです。}other{ウェブ上でダウンロードできるのは 1 曲につき {DOWNLOAD_COUNT_MAX_2} 回までです。}}"
   },
   "6591282200798732887": {
      "message": "半角幅の四角形"
   },
   "65984904390749158": {
      "message": "完了"
   },
   "66116513409922755": {
      "message": "いいえ"
   },
   "6612115524763399815": {
      "message": "デバナーガリ文字"
   },
   "6612332818623520965": {
      "message": "エラーが発生しました。もう一度お試しください。"
   },
   "6634231960955145278": {
      "message": "曲"
   },
   "6638274938129779637": {
      "message": "高評価を取り消す"
   },
   "6641147067989080704": {
      "message": "カヤー語"
   },
   "6650633628037596693": {
      "message": "もう一度お試しください"
   },
   "6650888720096194474": {
      "message": "ミニプレーヤーを使用するには、$START_SPAN$$EMAIL$$END_SPAN$ で Google Play Music を設定する必要があります",
      "placeholders": {
         "EMAIL": {
            "content": "$1"
         },
         "END_SPAN": {
            "content": "$2"
         },
         "START_SPAN": {
            "content": "$3"
         }
      }
   },
   "6652649548557498169": {
      "message": "標準"
   },
   "6652787256443519035": {
      "message": "タグなし"
   },
   "6674940684074453217": {
      "message": "iOS"
   },
   "66820157572867378": {
      "message": "インデントを減らします"
   },
   "6689623864271696040": {
      "message": "ソフト ハイフン"
   },
   "6703444928647322448": {
      "message": "タイトル"
   },
   "6704452266937792847": {
      "message": "ライブラリに追加"
   },
   "6706494172112196654": {
      "message": "ファミリー プランにアップグレードすると、最大 6 人の家族で利用できます"
   },
   "6711475260919070872": {
      "message": "古代ペルシャ文字"
   },
   "6716575470159796252": {
      "message": "Chrome OS"
   },
   "6718773735728815040": {
      "message": "あなたへのおすすめ"
   },
   "6719382961812623394": {
      "message": "設定中に問題が発生しました"
   },
   "6722174221321515493": {
      "message": "ゼロ幅非接合子"
   },
   "6724866564770579816": {
      "message": "音楽をかけるには"
   },
   "6732797853205065184": {
      "message": "除外"
   },
   "6742017901699269182": {
      "message": "アルバムに移動"
   },
   "6747414430222084644": {
      "message": "トラックの長さ: $TRACK_LENGTH$",
      "placeholders": {
         "TRACK_LENGTH": {
            "content": "$1"
         }
      }
   },
   "6750258767236131097": {
      "message": "中東の文字体系"
   },
   "6768967544887679189": {
      "message": "波ダッシュ"
   },
   "6790172339432877080": {
      "message": "このエルマークは、レコード会社・映像製作会社が提供するコンテンツを示す登録商標です"
   },
   "6803938061962662521": {
      "message": "$DAYS_PART$$DAYS_SEPARATOR$$HOURS_PART$$HOURS_SEPARATOR$$MINUTES_PART$",
      "placeholders": {
         "DAYS_PART": {
            "content": "$1"
         },
         "DAYS_SEPARATOR": {
            "content": "$2"
         },
         "HOURS_PART": {
            "content": "$3"
         },
         "HOURS_SEPARATOR": {
            "content": "$4"
         },
         "MINUTES_PART": {
            "content": "$5"
         }
      }
   },
   "6814976743136440069": {
      "message": "OK"
   },
   "6820635381009519748": {
      "message": "キューから削除"
   },
   "6821274223204126521": {
      "message": "音楽"
   },
   "6830152735949448199": {
      "message": "Google Play Music Labs は開発中の実験的な機能をテストするための環境です。各機能は随時、変更、中断、提供中止となる可能性があります。ぜひお試しください。"
   },
   "6839273670547667172": {
      "message": "コンピレーション"
   },
   "6840919594921167668": {
      "message": "ダウンロードした曲を確認するには、パソコンの [ダウンロード] フォルダを確認してください。"
   },
   "6843333688253399564": {
      "message": "カタカナ"
   },
   "6852978731943767591": {
      "message": "3. インストーラが開いたら、その指示どおりに Music Manager を設定します。"
   },
   "6887831882226099905": {
      "message": "次の端末で音楽を追加する許可を取り消してもよろしいですか:"
   },
   "6930531446322391145": {
      "message": "画像"
   },
   "6932671848756303275": {
      "message": "低"
   },
   "6940170973585783277": {
      "message": "ファミリー プランにアップグレード"
   },
   "6941609127174167431": {
      "message": "10 秒巻き戻し"
   },
   "6943941659433003765": {
      "message": "インスタント ミックスを開始"
   },
   "6958966284437922286": {
      "message": "ヴァイ語"
   },
   "6962699013778688473": {
      "message": "次へ"
   },
   "6990699195498598876": {
      "message": "開始するには以下から Music Manager をダウンロードします。Music Manager は、パソコン上の音楽ファイルを Google Play に追加できるシンプルなアプリです。"
   },
   "699971906528455934": {
      "message": "不明なアーティスト"
   },
   "700030425158051007": {
      "message": "リンブ文字"
   },
   "7009828133009731416": {
      "message": "Google からの無料プレゼント"
   },
   "7015870297337540921": {
      "message": "ポラード文字"
   },
   "7020161279392960480": {
      "message": "書式"
   },
   "7022070615528435141": {
      "message": "Del"
   },
   "7034479228356652023": {
      "message": "ハングル 1 画"
   },
   "7035822615949880851": {
      "message": "この端末では音楽を一時的に利用できなくなっています。しばらくしてからもう一度お試しください。エラー 442。"
   },
   "7043080825985118397": {
      "message": "削除を取り消す"
   },
   "7049182394855721704": {
      "message": "ゴート文字"
   },
   "7054091192371222228": {
      "message": " / "
   },
   "7062695654404914711": {
      "message": "インスタントミックス"
   },
   "7067908984080925888": {
      "message": "もっと見る"
   },
   "7071666053441099517": {
      "message": "1. ブラウザ ウインドウの左下で MusicManager.dmg を開きます。"
   },
   "7080245643233785574": {
      "message": "Chrome 版 Google Play Music でエラーが発生しました。もう一度ログインしてください。"
   },
   "7090368974279082159": {
      "message": "エラー"
   },
   "709740537382334098": {
      "message": "購入した音楽（$TOTAL_SONGS$）を含むライブラリ全体を削除する",
      "placeholders": {
         "TOTAL_SONGS": {
            "content": "$1"
         }
      }
   },
   "7100404876663103497": {
      "message": "ハングル初声の充てん文字"
   },
   "7100567566985297322": {
      "message": "全角スペース"
   },
   "7104210472412766015": {
      "message": "ルビ開始指定文字"
   },
   "7105416082849293719": {
      "message": "最近のアクティビティ"
   },
   "7110393208916703749": {
      "message": "動画"
   },
   "7111181959300196580": {
      "message": "インデントを増やします"
   },
   "7116872031464114568": {
      "message": "サウンド検索で特定"
   },
   "7127937208951634191": {
      "message": "記号"
   },
   "7136816542440442290": {
      "message": "ラジオ ステーションの読み込み中に問題が発生しました。"
   },
   "716550293954822096": {
      "message": "シンハラ語"
   },
   "7182974689040833178": {
      "message": "再開"
   },
   "7192513315706728552": {
      "message": "サーバーエラーが発生しました。しばらくしてからもう一度お試しください。"
   },
   "7194376132387780145": {
      "message": "端末数が既に 10 台に達しているため、このパソコンを許可できません。"
   },
   "7200522943394315316": {
      "message": "32 ビット .rpm（Fedora/openSUSE）"
   },
   "7202681158267340446": {
      "message": "フォントを設定します"
   },
   "720381800527728702": {
      "message": "スポーツ、お祝い、アクティビティ"
   },
   "7212676589977202933": {
      "message": "$NUM_TRANSFERRED_TRACKS$ 曲を追加しました",
      "placeholders": {
         "NUM_TRANSFERRED_TRACKS": {
            "content": "$1"
         }
      }
   },
   "7224832103566723854": {
      "message": "このプレイリストを開けませんでした。もう一度お試しください。"
   },
   "7225854335198901823": {
      "message": "低品質にするとデータの使用は少なくなります。"
   },
   "7228343081607279547": {
      "message": "スンダ文字"
   },
   "7229202390260081051": {
      "message": "最大"
   },
   "7249560357803023328": {
      "message": "ライブラリのダウンロード"
   },
   "7262284142845767114": {
      "message": "高く評価"
   },
   "7277602889799602415": {
      "message": "マイ ライブラリを削除"
   },
   "7282565673166392948": {
      "message": "表意文字"
   },
   "7283215568776397157": {
      "message": "アップロードされた曲:"
   },
   "7287006426755387074": {
      "message": "プレーヤーの音量を上げます"
   },
   "7292878672940239832": {
      "message": "{NUM_MINUTES,plural, =0{0 分}=1{1 分}other{# 分}}"
   },
   "7292902857194439444": {
      "message": "端末"
   },
   "7293925053370285812": {
      "message": "現在の曲をリピートしています。クリックするとリピートモードを変更できます。"
   },
   "729714018676926076": {
      "message": "Google Play Music で予約購入する"
   },
   "7299356918464630268": {
      "message": "高音質にするとデータを多く使用します"
   },
   "730022297859142476": {
      "message": "インスタント ミックス"
   },
   "7305504256207181669": {
      "message": "箇条書きにします"
   },
   "731429515932674572": {
      "message": "音量をミュート"
   },
   "7320133162875658022": {
      "message": "新しい曲をアップロード（$NUM_NEW_SONGS$ 曲）",
      "placeholders": {
         "NUM_NEW_SONGS": {
            "content": "$1"
         }
      }
   },
   "7331328794127852355": {
      "message": "絵文字"
   },
   "7335080673788704461": {
      "message": "交通、地図、標識"
   },
   "7354536653016090160": {
      "message": "トップ チャート"
   },
   "7354691783317064273": {
      "message": "Chrome アプリは接続されています。"
   },
   "7376787658603979700": {
      "message": "膨大なコレクションの中から楽曲を購入できます。無料の楽曲も数百曲ご用意しています。"
   },
   "7396303606473621591": {
      "message": "すべて"
   },
   "7410432243549869948": {
      "message": "再生時間"
   },
   "7411932913365107274": {
      "message": "1 年に 4 つの端末の許可を取り消すことができます。"
   },
   "741454111929523251": {
      "message": "もしかして: $START_LINK$$SUGGESTED_QUERY$$END_LINK$",
      "placeholders": {
         "END_LINK": {
            "content": "$1"
         },
         "START_LINK": {
            "content": "$2"
         },
         "SUGGESTED_QUERY": {
            "content": "$3"
         }
      }
   },
   "7417635001613679430": {
      "message": "フォルダを選択..."
   },
   "7422152161839392092": {
      "message": "Google Play Music 定期購入のギフトを贈ろう"
   },
   "7427708733231424131": {
      "message": "{NUM,plural, =0{# 日後}=1{# 日後}other{# 日後}}"
   },
   "7437894509168051348": {
      "message": "ハングル 7 画"
   },
   "7449358949677606364": {
      "message": "3,500 万曲がいつでも好きなだけ聴き放題"
   },
   "7467710920158412786": {
      "message": "自分だけが使用できる非公開のプレイリストです。"
   },
   "747583939629659293": {
      "message": "色を追加"
   },
   "7480960100390206139": {
      "message": "その他"
   },
   "7502695447103329189": {
      "message": "Shift+&#8594;"
   },
   "7512291922236002631": {
      "message": "「$START_SPAN$$TITLE$$END_SPAN$」を共有するには、このリンクをコピーして貼り付けてください",
      "placeholders": {
         "END_SPAN": {
            "content": "$1"
         },
         "START_SPAN": {
            "content": "$2"
         },
         "TITLE": {
            "content": "$3"
         }
      }
   },
   "7515033107202878673": {
      "message": "好きなアーティストの選択"
   },
   "7529798479468856973": {
      "message": "$NUM$ 時間前",
      "placeholders": {
         "NUM": {
            "content": "$1"
         }
      }
   },
   "7535122927261158198": {
      "message": "最近追加した曲"
   },
   "7536172317066333802": {
      "message": "画像を挿入します"
   },
   "7546873952682838388": {
      "message": "このパソコンの音楽"
   },
   "7559266156388225108": {
      "message": "カイティー文字の数字記号"
   },
   "756024699361489239": {
      "message": "シャッフル"
   },
   "756532847162987514": {
      "message": "（$XXX$）",
      "placeholders": {
         "XXX": {
            "content": "$1"
         }
      }
   },
   "7569000733095186860": {
      "message": "コンテンツを更新できませんでした"
   },
   "7570731911896608225": {
      "message": "モンゴル語母音区切り文字"
   },
   "7572946295452220765": {
      "message": "インストール手順"
   },
   "7587796626090923635": {
      "message": "{COUNT_1,plural, =0{0 回}=1{1 回}other{{COUNT_2} 回}}"
   },
   "7592349062857393820": {
      "message": "g を押して t"
   },
   "7596816553523902619": {
      "message": "今日"
   },
   "7599424290971072767": {
      "message": "ジャンル"
   },
   "7601688284754148415": {
      "message": "数学"
   },
   "7604883230326131491": {
      "message": "「$TITLE$」のプレイリスト",
      "placeholders": {
         "TITLE": {
            "content": "$1"
         }
      }
   },
   "7605394550777137111": {
      "message": "まもなくダウンロードが開始します。開始しない場合は$START_LINK$こちら$END_LINK$をクリックしてください。",
      "placeholders": {
         "END_LINK": {
            "content": "$1"
         },
         "START_LINK": {
            "content": "$2"
         }
      }
   },
   "7617664217221228040": {
      "message": "バリ語"
   },
   "7619560701830330401": {
      "message": "読み込んでいます"
   },
   "762389150316771008": {
      "message": "「I'm feeling lucky」ラジオ"
   },
   "7625459160681249394": {
      "message": "{NUM_SONGS,plural, =0{パソコンにダウンロードする曲が選択されていません。}=1{選択した曲は既にダウンロード回数の上限に達しています。}other{選択した曲は既にダウンロードの上限に達しています。}}"
   },
   "7631480327394084350": {
      "message": "制御用記号"
   },
   "763998168115480566": {
      "message": "スキップの上限に達しました。定期購入すると、数百万もの曲にオンデマンド、オフラインでアクセスできます。"
   },
   "7664246845088850317": {
      "message": "サーバーに接続できませんでした。エラー コード: "
   },
   "7669291472367464463": {
      "message": "@google.com のメールアドレスを入力してください"
   },
   "7677669941581940117": {
      "message": "Google+"
   },
   "7704516203792990151": {
      "message": "経過時間"
   },
   "7709119284546787990": {
      "message": "テキストを右から左に設定します"
   },
   "7711713319832787051": {
      "message": "ペア"
   },
   "7730109880037106848": {
      "message": "記号"
   },
   "7736581252844206600": {
      "message": "ギリシャ語"
   },
   "7737642252665507180": {
      "message": "16 進数で入力"
   },
   "7743528314734813641": {
      "message": "インスタント ミックスの読み込み中に問題が発生しました。"
   },
   "7756401573104983978": {
      "message": "パソコン アプリ"
   },
   "776736242214904151": {
      "message": "曲をもう一度再生したり、他にも数百万もの曲をいつでも聴いたりできます"
   },
   "7772875668912229569": {
      "message": "{NUM_SONGS,plural, =0{0 曲}=1{1 曲}other{# 曲}}"
   },
   "7774266771623079214": {
      "message": "Play Music"
   },
   "7776111286341041808": {
      "message": "テキストを左から右に設定します"
   },
   "7783345534551124847": {
      "message": "曲"
   },
   "779262212811541732": {
      "message": "南アラビア文字"
   },
   "7801884781403562273": {
      "message": "コードを利用"
   },
   "7816161180678740448": {
      "message": "点字"
   },
   "7819314041543176992": {
      "message": "閉じる"
   },
   "7832954852370077811": {
      "message": "音楽の再生を開始するか、アルバム、曲、プレイリストで $MENU_ICON$ アイコンをクリックしてキューに追加してください",
      "placeholders": {
         "MENU_ICON": {
            "content": "$1"
         }
      }
   },
   "7834872082445723495": {
      "message": "音楽の追加をキャンセルしています"
   },
   "7846689234809169417": {
      "message": "動物、植物、食べ物"
   },
   "7873745865358968651": {
      "message": "{NUM_HOURS,plural, =0{0 時間}=1{1 時間}other{# 時間}}"
   },
   "7878031641910175480": {
      "message": "最近選択した文字:"
   },
   "7888286842234266048": {
      "message": "囲み文字/端点付き"
   },
   "7898792314887900865": {
      "message": "キプロス文字"
   },
   "7927039504440585569": {
      "message": "ラテン"
   },
   "7931527771588976000": {
      "message": "音声記号（IPA）"
   },
   "7941094066137301803": {
      "message": "Google+ にアップグレードして、友だちと共有しましょう。"
   },
   "7943877664425892318": {
      "message": "プレイリスト ドロワーを開く"
   },
   "7947294997516635657": {
      "message": "すべて最新の状態です"
   },
   "7954850519963017242": {
      "message": "$NUM$ 日前",
      "placeholders": {
         "NUM": {
            "content": "$1"
         }
      }
   },
   "7963649299504644841": {
      "message": "アラビア記号 Sanah"
   },
   "7978348005042781826": {
      "message": "{VALUE,plural, =0{フォルダなし}=1{1 個のフォルダ}other{# 個のフォルダ}}"
   },
   "7980428538910137664": {
      "message": "無料/購入済みの曲"
   },
   "7984622936663451936": {
      "message": "キーボードと UI"
   },
   "7985393396166342590": {
      "message": "音楽の追加を再開しています"
   },
   "7996265599642887416": {
      "message": "ライブラリから削除"
   },
   "8019982600883750632": {
      "message": "両端揃えにします"
   },
   "8020892463961333112": {
      "message": "音楽記号 スラーの末尾"
   },
   "8030037581414873660": {
      "message": "ハングル 2 画"
   },
   "803032414305825807": {
      "message": "フォント サイズを設定します"
   },
   "803376120920513357": {
      "message": "$NUM$ 日前",
      "placeholders": {
         "NUM": {
            "content": "$1"
         }
      }
   },
   "8041472556355834197": {
      "message": "プレーヤーの操作"
   },
   "8058956869215275454": {
      "message": "Facebook で共有"
   },
   "8066747296553908214": {
      "message": "斜めの二重ハイフン"
   },
   "8110367050267853536": {
      "message": "その他の選択項目"
   },
   "8110717721846730575": {
      "message": "音量のミュートを解除"
   },
   "8117873518116417445": {
      "message": "{NUM,plural, =0{ダウンロードの上限回数を超えている曲はありません。}=1{「{XXX_1}」は既に {DOWNLOAD_COUNT_MAX} 回ダウンロードしているので、ダウンロードできません。}=2{「{XXX_1}」と「{XXX_2}」は既に {DOWNLOAD_COUNT_MAX} 回ダウンロードしているので、ダウンロードできません。}=3{「{XXX_1}」、「{XXX_2}」、「{XXX_3}」は既に {DOWNLOAD_COUNT_MAX} 回ダウンロードしているので、ダウンロードできません。}=4{「{XXX_1}」、「{XXX_2}」、「{XXX_3}」とその他選択した 1 曲は既に {DOWNLOAD_COUNT_MAX} 回ダウンロードしているので、ダウンロードできません。}other{「{XXX_1}」、「{XXX_2}」、「{XXX_3}」とその他選択した {XXX_4} 曲は既に {DOWNLOAD_COUNT_MAX} 回ダウンロードしているので、ダウンロードできません。}}"
   },
   "8133597683741906689": {
      "message": "$MONTH_NAME$ $YEAR_NUM$",
      "placeholders": {
         "MONTH_NAME": {
            "content": "$1"
         },
         "YEAR_NUM": {
            "content": "$2"
         }
      }
   },
   "8140841959031615975": {
      "message": "Google Play Music から最新のニュースやクーポンを受信する"
   },
   "8144474297019493415": {
      "message": "最近追加した曲"
   },
   "8157575291689267495": {
      "message": "{COUNT,plural, =0{}=1{{TEXT} 日}other{{TEXT} 日}}"
   },
   "8159976291123989327": {
      "message": "リンクの編集"
   },
   "8164274980045228173": {
      "message": "PDF"
   },
   "8164897103619368290": {
      "message": "番号付きリストにします"
   },
   "8167254435928832023": {
      "message": "I'm Feeling Lucky"
   },
   "8174689178967388837": {
      "message": "トラック番号"
   },
   "8191208612330635266": {
      "message": "チベット語"
   },
   "8192298658946835992": {
      "message": "ゼロ幅の改行しないスペース"
   },
   "8193509313274135818": {
      "message": "アラビア語の脚注記号"
   },
   "819996403327805209": {
      "message": "詳細"
   },
   "8202537648978392187": {
      "message": "{DOWNLOAD_COUNT_MAX_1,plural, =1{{START_SPAN_1}直接ダウンロード{END_SPAN}することもできますが、ダウンロードできるのは {START_SPAN_2}1 曲につき 1 回{END_SPAN}までです。}other{{START_SPAN_1}直接ダウンロード{END_SPAN}することもできますが、ダウンロードできるのは {START_SPAN_3}1 曲につき {DOWNLOAD_COUNT_MAX_2} 回{END_SPAN}までです。}}"
   },
   "8216772648076666728": {
      "message": "露骨な曲を許可。"
   },
   "8233851949641842866": {
      "message": "{NUM_FAILURES_1,plural, =1{ 1 曲追加できませんでした}other{ {NUM_FAILURES_2} 曲追加できませんでした}}"
   },
   "823405029831570152": {
      "message": "エチオピア語"
   },
   "8235345176344531979": {
      "message": "g を押して a"
   },
   "8249329268828083858": {
      "message": "カタカナ/ひらがな用の二重ハイフン"
   },
   "8275689791574630480": {
      "message": "オガム文字のスペース マーク"
   },
   "8277279706638733641": {
      "message": "星/アスタリスク"
   },
   "828700836558117968": {
      "message": "Google Play Music"
   },
   "8300572760144032022": {
      "message": "選択した曲から新しいラジオ ステーションを作成します"
   },
   "8302804816588048941": {
      "message": "この操作を行うと、プレイリスト、インスタント ミックス、評価、再生回数情報も削除されます。"
   },
   "8325100368677049569": {
      "message": "新曲を探す"
   },
   "8358697777226306085": {
      "message": "エジプト ヒエログリフ"
   },
   "8363930857329550333": {
      "message": "グルジア語"
   },
   "8385464685117997940": {
      "message": "最近再生したアイテム"
   },
   "8395180429531273524": {
      "message": "使用している端末で特典を利用できないのはなぜですか？"
   },
   "8396767881870375563": {
      "message": "アクティビティの検索結果をすべて見る"
   },
   "8405156617531647050": {
      "message": "Google Play Music を既にお試しいただいているようです。"
   },
   "840664911413405433": {
      "message": "Windows"
   },
   "840692109692540367": {
      "message": "ログイン"
   },
   "8412726756889279816": {
      "message": "チャクマ文字"
   },
   "8421838551605999158": {
      "message": "1. musicmanagerinstaller.exe を保存します。"
   },
   "8424326418312855409": {
      "message": "Google Play Music の設定中に問題が発生しました。"
   },
   "842631328362018283": {
      "message": "大"
   },
   "8439955599488894226": {
      "message": "プライバシー ポリシー"
   },
   "8440128775129354214": {
      "message": "プライバシー"
   },
   "8454237498473122184": {
      "message": "ハイフンマイナス"
   },
   "8455196866871985315": {
      "message": "ベストセラー アルバムをすべて見る"
   },
   "8455204924704616723": {
      "message": "ファイル"
   },
   "8458476427655018512": {
      "message": "スペース"
   },
   "8477224362193738096": {
      "message": "アーティスト: $ARTIST_NAME$",
      "placeholders": {
         "ARTIST_NAME": {
            "content": "$1"
         }
      }
   },
   "8482517151370142670": {
      "message": "その他"
   },
   "848933194605193751": {
      "message": "YouTube で最近再生"
   },
   "8492241415183649700": {
      "message": "カリア文字"
   },
   "851623407011365974": {
      "message": "音楽の再生は、まもなく再開されます"
   },
   "8534560073330554352": {
      "message": "再生回数"
   },
   "8542907888351533629": {
      "message": "..."
   },
   "8564202903947049539": {
      "message": "再生"
   },
   "8574053857298592408": {
      "message": "ナビゲーション ドロワーを開きます。"
   },
   "8602981985283490607": {
      "message": "パソコンからの Music Manager の削除については、$START_LINK$こちらのヘルプ$END_LINK$をご覧ください。",
      "placeholders": {
         "END_LINK": {
            "content": "$1"
         },
         "START_LINK": {
            "content": "$2"
         }
      }
   },
   "8604571003772710870": {
      "message": "再生するには Shift+Enter キーを押します"
   },
   "8606325754052632992": {
      "message": "Google Play では、音楽のアップロードを迅速に処理するため、Google のサーバーにあるファイルの中からアップロードされたファイルに一致するものを探します。その過程で、誤って別の曲が見つかることがあります。ここで問題を報告すると、曲が再度アップロードされます。"
   },
   "8608281335099046628": {
      "message": "音楽を処理しています..."
   },
   "8619410898472620495": {
      "message": "再生を再開するにはウェブで Google Play Music にアクセスしてください。"
   },
   "862440714280873951": {
      "message": "ポッドキャストあり"
   },
   "8624490471677691415": {
      "message": "音楽を表示:"
   },
   "8624618794349836904": {
      "message": "カスタマイズされたおすすめの表示やラジオのカスタマイズに使用される履歴を削除します。これにより、各トラックの評価や再生数が削除されることはありません。"
   },
   "8627517613423630249": {
      "message": "{NUM,plural, =0{# 分後}=1{# 分後}other{# 分後}}"
   },
   "8628766851955432422": {
      "message": "削除"
   },
   "8637643428005590282": {
      "message": "マーク"
   },
   "8639048757911329468": {
      "message": "NaCl バージョン: $START_SPAN$$NACL_VERSION$$END_SPAN$",
      "placeholders": {
         "END_SPAN": {
            "content": "$1"
         },
         "NACL_VERSION": {
            "content": "$2"
         },
         "START_SPAN": {
            "content": "$3"
         }
      }
   },
   "8642779049394824811": {
      "message": "ラジオ再生中はスライダーを動かすことはできません"
   },
   "8679806927601731663": {
      "message": "再試行"
   },
   "8692453200617588996": {
      "message": "好きなジャンルの選択"
   },
   "8700121026680200191": {
      "message": "消去"
   },
   "8733921970136713647": {
      "message": "定期購入を解約"
   },
   "8741366833297918126": {
      "message": "曲の再生時間"
   },
   "8763647985340267403": {
      "message": "ゲーム"
   },
   "8764339661945610128": {
      "message": "他のアーティストを見る"
   },
   "8768143964455071187": {
      "message": "オガム文字"
   },
   "8771272263124601486": {
      "message": "タグバヌワ文字"
   },
   "8781113009551656764": {
      "message": "{NUM,plural, =0{# 時間前}=1{# 時間前}other{# 時間前}}"
   },
   "8790918354594417962": {
      "message": "Facebook"
   },
   "8799945990693183114": {
      "message": "Labs"
   },
   "8801527171487571079": {
      "message": "ラーンナー文字"
   },
   "880592275679936810": {
      "message": "$START_SPAN$$NUM_TRANSFERRED_TRACKS$$END_SPAN$ 件追加しました",
      "placeholders": {
         "END_SPAN": {
            "content": "$1"
         },
         "NUM_TRANSFERRED_TRACKS": {
            "content": "$2"
         },
         "START_SPAN": {
            "content": "$3"
         }
      }
   },
   "8818387952529569142": {
      "message": "今日"
   },
   "8819361322041128714": {
      "message": "ウガリト文字"
   },
   "8825531460389729800": {
      "message": "{NUM_PLAYLISTS,plural, =0{0 件のプレイリスト}=1{1 件のプレイリスト}other{# 件のプレイリスト}}"
   },
   "8837901995601992509": {
      "message": "$PREB$注意:$POSTB$ ウェブページにメール アドレスを掲載すると、悪質な迷惑メールの標的になるおそれがあります。",
      "placeholders": {
         "POSTB": {
            "content": "$1"
         },
         "PREB": {
            "content": "$2"
         }
      }
   },
   "8841049363660529484": {
      "message": "$ITEM_NAME$（選択されています。クリックすると選択解除されます）。",
      "placeholders": {
         "ITEM_NAME": {
            "content": "$1"
         }
      }
   },
   "8850654014217110957": {
      "message": "アラビア数字記号"
   },
   "8856082547348646311": {
      "message": "Google ロケーション履歴"
   },
   "8858058202463451164": {
      "message": "左揃えにします"
   },
   "8868784738343119594": {
      "message": "$NUM$ 分前",
      "placeholders": {
         "NUM": {
            "content": "$1"
         }
      }
   },
   "886941024758881610": {
      "message": "曲をもっと見る"
   },
   "8871219022895015530": {
      "message": "現在選択されている曲をキューに追加します"
   },
   "88781093248476711": {
      "message": "名前なし"
   },
   "8890553633144307762": {
      "message": "戻る"
   },
   "8892908795692466458": {
      "message": "共有"
   },
   "8896073810838561095": {
      "message": "ハングル 8 画"
   },
   "8901076355007755806": {
      "message": "レプチャ語"
   },
   "8910998670732377227": {
      "message": "再試行"
   },
   "8920100935192456970": {
      "message": "ジャンルの検索結果をすべて見る"
   },
   "8928816882866356838": {
      "message": "一般公開"
   },
   "8931700495296520714": {
      "message": "ミニプレーヤーを閉じる"
   },
   "8934299821763129489": {
      "message": "古イタリア文字"
   },
   "8936704404804793618": {
      "message": "動画"
   },
   "8953033926734869941": {
      "message": "曲名"
   },
   "8958381934236197373": {
      "message": "数字用スペース"
   },
   "8961985815150856927": {
      "message": "最近作成したアイテム"
   },
   "8969179774064404960": {
      "message": "音量"
   },
   "8971282019539581965": {
      "message": "[基本情報] ダイアログを閉じる"
   },
   "8979933913103486540": {
      "message": "ダッシュ/コネクタ"
   },
   "8982807952821993986": {
      "message": "{NUM_TRANSFERRED_TRACKS_1,plural, =1{ 1 曲をダウンロードしました}other{ {NUM_TRANSFERRED_TRACKS_2} 曲をダウンロードしました}}"
   },
   "8998527640999447691": {
      "message": "囲み文字"
   },
   "9000028459946302905": {
      "message": "マイ ライブラリにアップロードした音楽（$UPLOADED_SONGS$）をすべて削除する",
      "placeholders": {
         "UPLOADED_SONGS": {
            "content": "$1"
         }
      }
   },
   "9000910334745340727": {
      "message": "モンゴル語ソフト ハイフン"
   },
   "9001309834415064766": {
      "message": "ハングル 10 画"
   },
   "901225307358856093": {
      "message": "カナダ音節文字のハイフン"
   },
   "902263003582497446": {
      "message": "ネットワーク状況を問わず高品質でストリーミングします。低速なネットワークではバッファリングされることがあります。"
   },
   "902300864627076683": {
      "message": "碑文用パルティア文字"
   },
   "9024489874326845912": {
      "message": "おすすめのアルバム"
   },
   "9042260521669277115": {
      "message": "一時停止"
   },
   "9045338265172338590": {
      "message": "マニプリ文字"
   },
   "9049377337845973204": {
      "message": "再生: $SONG_NAME$",
      "placeholders": {
         "SONG_NAME": {
            "content": "$1"
         }
      }
   },
   "9053704575157030099": {
      "message": "すべて選択解除"
   },
   "9059560719840598868": {
      "message": "フィードバックを送信"
   },
   "9063659532473030063": {
      "message": "天気/占星術"
   },
   "9084816336314899019": {
      "message": "次へ"
   },
   "9092976405151508175": {
      "message": "やり直します"
   },
   "9094991886709915191": {
      "message": "広告なしで、3,500 万曲にオンデマンドでアクセス。ダウンロードしてオフラインで再生。お好みの曲を最大 $FORMATTED_LOCKER_SIZE$ 曲アップロードして、いつでもどこでも再生できます。",
      "placeholders": {
         "FORMATTED_LOCKER_SIZE": {
            "content": "$1"
         }
      }
   },
   "9128859482251917046": {
      "message": "キューを開くか、閉じるかを切り替えます"
   },
   "9138683078793837147": {
      "message": "低評価を取り消す"
   },
   "9143597363285105250": {
      "message": "アルバム アーティスト"
   },
   "9173411042808904308": {
      "message": "標準（明朝/Serif）"
   },
   "9179661003472285430": {
      "message": "Music Manager のダウンロード"
   },
   "9184426509557869402": {
      "message": "全角スペース"
   },
   "9193901371937110673": {
      "message": "許可された端末はありません"
   },
   "9197433560254928186": {
      "message": "アラビア語"
   },
   "9205544184671349450": {
      "message": "このパソコンには既にお持ちの曲があるようです。"
   },
   "9214517335069385090": {
      "message": "または..."
   },
   "9218938714985695055": {
      "message": "音楽記号 スラーの先頭"
   },
   "933914956414602837": {
      "message": "曲のアップロードを迅速化するため、Google Play ではユーザーの音楽ファイルと同じファイルがサーバー上にあればそちらを使用します。この組合せの判定には誤りが生じることがあります。問題が発生した場合はこちらから報告してください。指摘のあった曲については、サーバー上のファイルではなく、ユーザーのファイルを使用するよう修正します。"
   },
   "935985887697278449": {
      "message": "定期購入済み"
   },
   "947591000172763449": {
      "message": "パスパ文字"
   },
   "949327761578931377": {
      "message": "月額 $OFFER_PRICE$で引き続きお楽しみいただけます。",
      "placeholders": {
         "OFFER_PRICE": {
            "content": "$1"
         }
      }
   },
   "953268105555355822": {
      "message": "すべて表示"
   },
   "95869773684474447": {
      "message": "再生エラー"
   },
   "963232722931839477": {
      "message": "キューは空です"
   },
   "964983733596985457": {
      "message": "互換文字"
   },
   "97224266342934568": {
      "message": "上付き文字"
   },
   "993762601773196496": {
      "message": "キャスト"
   },
   "997890303689941626": {
      "message": "動画の検索結果をすべて見る"
   }
}
